ECE 350/Stuffs/Checkpoint3_MultDiv/counter_wave.vcd
$date
	Sun Feb 11 18:37:42 2024
$end
$version
	Icarus Verilog
$end
$timescale
	1ps
$end
$scope module counter_testbench $end
$var wire 6 ! count [5:0] $end
$var reg 1 " clock $end
$var reg 1 # reset $end
$scope module uut $end
$var wire 1 " clock $end
$var wire 1 # reset $end
$var wire 6 $ count [5:0] $end
$var wire 6 % binit [5:0] $end
$scope module numberFive $end
$var wire 1 & D_in $end
$var wire 1 ' Q $end
$var wire 1 ( T $end
$var wire 1 " clock $end
$var wire 1 # reset $end
$var wire 1 ) notQ $end
$var wire 1 * D_out $end
$scope module myFavoriteStorageFridge $end
$var wire 1 " clk $end
$var wire 1 # clr $end
$var wire 1 & d $end
$var wire 1 + en $end
$var reg 1 * q $end
$upscope $end
$upscope $end
$scope module numberFour $end
$var wire 1 , D_in $end
$var wire 1 - Q $end
$var wire 1 . T $end
$var wire 1 " clock $end
$var wire 1 # reset $end
$var wire 1 / notQ $end
$var wire 1 0 D_out $end
$scope module myFavoriteStorageFridge $end
$var wire 1 " clk $end
$var wire 1 # clr $end
$var wire 1 , d $end
$var wire 1 1 en $end
$var reg 1 0 q $end
$upscope $end
$upscope $end
$scope module numberOne $end
$var wire 1 2 D_in $end
$var wire 1 3 Q $end
$var wire 1 4 T $end
$var wire 1 " clock $end
$var wire 1 # reset $end
$var wire 1 5 notQ $end
$var wire 1 6 D_out $end
$scope module myFavoriteStorageFridge $end
$var wire 1 " clk $end
$var wire 1 # clr $end
$var wire 1 2 d $end
$var wire 1 7 en $end
$var reg 1 6 q $end
$upscope $end
$upscope $end
$scope module numberSix $end
$var wire 1 8 D_in $end
$var wire 1 9 Q $end
$var wire 1 : T $end
$var wire 1 " clock $end
$var wire 1 # reset $end
$var wire 1 ; notQ $end
$var wire 1 < D_out $end
$scope module myFavoriteStorageFridge $end
$var wire 1 " clk $end
$var wire 1 # clr $end
$var wire 1 8 d $end
$var wire 1 = en $end
$var reg 1 < q $end
$upscope $end
$upscope $end
$scope module numberThree $end
$var wire 1 > D_in $end
$var wire 1 ? Q $end
$var wire 1 @ T $end
$var wire 1 " clock $end
$var wire 1 # reset $end
$var wire 1 A notQ $end
$var wire 1 B D_out $end
$scope module myFavoriteStorageFridge $end
$var wire 1 " clk $end
$var wire 1 # clr $end
$var wire 1 > d $end
$var wire 1 C en $end
$var reg 1 B q $end
$upscope $end
$upscope $end
$scope module numberTwo $end
$var wire 1 D D_in $end
$var wire 1 E Q $end
$var wire 1 F T $end
$var wire 1 " clock $end
$var wire 1 # reset $end
$var wire 1 G notQ $end
$var wire 1 H D_out $end
$scope module myFavoriteStorageFridge $end
$var wire 1 " clk $end
$var wire 1 # clr $end
$var wire 1 D d $end
$var wire 1 I en $end
$var reg 1 H q $end
$upscope $end
$upscope $end
$upscope $end
$upscope $end
$enddefinitions $end
$comment Show the parameter values. $end
$dumpall
$end
#0
$dumpvars
1I
0H
1G
0F
0E
0D
1C
0B
1A
0@
0?
0>
1=
0<
1;
0:
09
08
17
06
15
14
03
12
11
00
1/
0.
0-
0,
1+
0*
1)
0(
0'
0&
b111111 %
b0 $
1#
0"
b0 !
$end
#10000
1"
#20000
0"
0#
#30000
1D
02
1F
b111110 %
05
b1 !
b1 $
13
16
1"
#40000
0"
#50000
12
0F
0G
1E
1H
b111101 %
15
b10 !
b10 $
03
06
1"
#60000
0"
#70000
1>
0D
02
1@
1F
b111100 %
05
b11 !
b11 $
13
16
1"
#80000
0"
#90000
1>
12
0@
0F
0A
1?
1B
1G
0E
0H
b111011 %
15
b100 !
b100 $
03
06
1"
#100000
0"
#110000
1D
02
1F
b111010 %
05
b101 !
b101 $
13
16
1"
#120000
0"
#130000
12
0F
0G
1E
1H
b111001 %
15
b110 !
b110 $
03
06
1"
#140000
0"
#150000
1,
0>
1.
0D
02
1@
1F
b111000 %
05
b111 !
b111 $
13
16
1"
#160000
0"
#170000
1,
0>
0.
12
0@
0F
0/
1-
10
1A
0?
0B
1G
0E
0H
b110111 %
15
b1000 !
b1000 $
03
06
1"
#180000
0"
#190000
1D
02
1F
b110110 %
05
b1001 !
b1001 $
13
16
1"
#200000
0"
#210000
12
0F
0G
1E
1H
b110101 %
15
b1010 !
b1010 $
03
06
1"
#220000
0"
#230000
1>
0D
02
1@
1F
b110100 %
05
b1011 !
b1011 $
13
16
1"
#240000
0"
#250000
1>
12
0@
0F
0A
1?
1B
1G
0E
0H
b110011 %
15
b1100 !
b1100 $
03
06
1"
#260000
0"
#270000
1D
02
1F
b110010 %
05
b1101 !
b1101 $
13
16
1"
#280000
0"
#290000
12
0F
0G
1E
1H
b110001 %
15
b1110 !
b1110 $
03
06
1"
#300000
0"
#310000
1&
0,
1(
0>
1.
0D
02
1@
1F
b110000 %
05
b1111 !
b1111 $
13
16
1"
#320000
0"
#330000
1&
0,
0(
0>
0.
12
0@
0F
0)
1'
1*
1/
0-
00
1A
0?
0B
1G
0E
0H
b101111 %
15
b10000 !
b10000 $
03
06
1"
#340000
0"
#350000
1D
02
1F
b101110 %
05
b10001 !
b10001 $
13
16
1"
#360000
0"
#370000
12
0F
0G
1E
1H
b101101 %
15
b10010 !
b10010 $
03
06
1"
#380000
0"
#390000
1>
0D
02
1@
1F
b101100 %
05
b10011 !
b10011 $
13
16
1"
#400000
0"
#410000
1>
12
0@
0F
0A
1?
1B
1G
0E
0H
b101011 %
15
b10100 !
b10100 $
03
06
1"
#420000
0"
#430000
1D
02
1F
b101010 %
05
b10101 !
b10101 $
13
16
1"
#440000
0"
#450000
12
0F
0G
1E
1H
b101001 %
15
b10110 !
b10110 $
03
06
1"
#460000
0"
#470000
1,
0>
1.
0D
02
1@
1F
b101000 %
05
b10111 !
b10111 $
13
16
1"
#480000
0"
#490000
1,
0>
0.
12
0@
0F
0/
1-
10
1A
0?
0B
1G
0E
0H
b100111 %
15
b11000 !
b11000 $
03
06
1"
#500000
0"
#510000
1D
02
1F
b100110 %
05
b11001 !
b11001 $
13
16
1"
#520000
0"
#530000
12
0F
0G
1E
1H
b100101 %
15
b11010 !
b11010 $
03
06
1"
#540000
0"
#550000
1>
0D
02
1@
1F
b100100 %
05
b11011 !
b11011 $
13
16
1"
#560000
0"
#570000
1>
12
0@
0F
0A
1?
1B
1G
0E
0H
b100011 %
15
b11100 !
b11100 $
03
06
1"
#580000
0"
#590000
1D
02
1F
b100010 %
05
b11101 !
b11101 $
13
16
1"
#600000
0"
#610000
12
0F
0G
1E
1H
b100001 %
15
b11110 !
b11110 $
03
06
1"
#620000
0"
#630000
18
0&
1:
0,
1(
0>
1.
0D
02
1@
1F
b100000 %
05
b11111 !
b11111 $
13
16
1"
#640000
0"
#650000
18
0&
0:
0,
0(
0>
0.
12
0@
0F
0;
19
1<
1)
0'
0*
1/
0-
00
1A
0?
0B
1G
0E
0H
b11111 %
15
b100000 !
b100000 $
03
06
1"
#660000
0"
#670000
1D
02
1F
b11110 %
05
b100001 !
b100001 $
13
16
1"
#680000
0"
#690000
12
0F
0G
1E
1H
b11101 %
15
b100010 !
b100010 $
03
06
1"
#700000
0"
#710000
1>
0D
02
1@
1F
b11100 %
05
b100011 !
b100011 $
13
16
1"
#720000
0"
#730000
1>
12
0@
0F
0A
1?
1B
1G
0E
0H
b11011 %
15
b100100 !
b100100 $
03
06
1"
#740000
0"
#750000
1D
02
1F
b11010 %
05
b100101 !
b100101 $
13
16
1"
#760000
0"
#770000
12
0F
0G
1E
1H
b11001 %
15
b100110 !
b100110 $
03
06
1"
#780000
0"
#790000
1,
0>
1.
0D
02
1@
1F
b11000 %
05
b100111 !
b100111 $
13
16
1"
#800000
0"
#810000
1,
0>
0.
12
0@
0F
0/
1-
10
1A
0?
0B
1G
0E
0H
b10111 %
15
b101000 !
b101000 $
03
06
1"
#820000
0"
#830000
1D
02
1F
b10110 %
05
b101001 !
b101001 $
13
16
1"
#840000
0"
#850000
12
0F
0G
1E
1H
b10101 %
15
b101010 !
b101010 $
03
06
1"
#860000
0"
#870000
1>
0D
02
1@
1F
b10100 %
05
b101011 !
b101011 $
13
16
1"
#880000
0"
#890000
1>
12
0@
0F
0A
1?
1B
1G
0E
0H
b10011 %
15
b101100 !
b101100 $
03
06
1"
#900000
0"
#910000
1D
02
1F
b10010 %
05
b101101 !
b101101 $
13
16
1"
#920000
0"
#930000
12
0F
0G
1E
1H
b10001 %
15
b101110 !
b101110 $
03
06
1"
#940000
0"
#950000
1&
0,
1(
0>
1.
0D
02
1@
1F
b10000 %
05
b101111 !
b101111 $
13
16
1"
#960000
0"
#970000
1&
0,
0(
0>
0.
12
0@
0F
0)
1'
1*
1/
0-
00
1A
0?
0B
1G
0E
0H
b1111 %
15
b110000 !
b110000 $
03
06
1"
#980000
0"
#990000
1D
02
1F
b1110 %
05
b110001 !
b110001 $
13
16
1"
#1000000
0"
#1010000
12
0F
0G
1E
1H
b1101 %
15
b110010 !
b110010 $
03
06
1"
#1020000
0"
#1030000
1>
0D
02
1@
1F
b1100 %
05
b110011 !
b110011 $
13
16
1"
#1040000
0"
#1050000
1>
12
0@
0F
0A
1?
1B
1G
0E
0H
b1011 %
15
b110100 !
b110100 $
03
06
1"
#1060000
0"
#1070000
1D
02
1F
b1010 %
05
b110101 !
b110101 $
13
16
1"
#1080000
0"
#1090000
12
0F
0G
1E
1H
b1001 %
15
b110110 !
b110110 $
03
06
1"
#1100000
0"
#1110000
1,
0>
1.
0D
02
1@
1F
b1000 %
05
b110111 !
b110111 $
13
16
1"
#1120000
0"
#1130000
1,
0>
0.
12
0@
0F
0/
1-
10
1A
0?
0B
1G
0E
0H
b111 %
15
b111000 !
b111000 $
03
06
1"
#1140000
0"
#1150000
1D
02
1F
b110 %
05
b111001 !
b111001 $
13
16
1"
#1160000
0"
#1170000
12
0F
0G
1E
1H
b101 %
15
b111010 !
b111010 $
03
06
1"
#1180000
0"
#1190000
1>
0D
02
1@
1F
b100 %
05
b111011 !
b111011 $
13
16
1"
#1200000
0"
#1210000
1>
12
0@
0F
0A
1?
1B
1G
0E
0H
b11 %
15
b111100 !
b111100 $
03
06
1"
#1220000
0"
#1230000
1D
02
1F
b10 %
05
b111101 !
b111101 $
13
16
1"
#1240000
0"
#1250000
12
0F
0G
1E
1H
b1 %
15
b111110 !
b111110 $
03
06
1"
#1260000
0"
#1270000
08
0&
1:
0,
1(
0>
1.
0D
02
1@
1F
b0 %
05
b111111 !
b111111 $
13
16
1"
#1280000
0"
#1290000
08
0&
0:
0,
0(
0>
0.
12
0@
0F
1;
09
0<
1)
0'
0*
1/
0-
00
1A
0?
0B
1G
0E
0H
b111111 %
15
b0 !
b0 $
03
06
1"
