ECE 350/Stuffs/Checkpoint1_ALU/alu-main/sll.vcd
$date
	Tue Jan 23 18:33:24 2024
$end
$version
	Icarus Verilog
$end
$timescale
	100ps
$end
$scope module alu_tb $end
$var wire 1 ! LT $end
$var wire 1 " NE $end
$var wire 1 # OVF $end
$var wire 32 $ Res [31:0] $end
$var reg 32 % A [31:0] $end
$var reg 5 & ALU_OP [4:0] $end
$var reg 32 ' B [31:0] $end
$var reg 1 ( ExpLT $end
$var reg 1 ) ExpNE $end
$var reg 1 * ExpOVF $end
$var reg 32 + ExpRes [31:0] $end
$var reg 5 , Shift_Amt [4:0] $end
$var reg 128 - actFileName [127:0] $end
$var reg 128 . diffFileName [127:0] $end
$var reg 128 / expFileName [127:0] $end
$var reg 128 0 testName [127:0] $end
$var integer 32 1 actFile [31:0] $end
$var integer 32 2 diffFile [31:0] $end
$var integer 32 3 errors [31:0] $end
$var integer 32 4 expFile [31:0] $end
$var integer 32 5 expScan [31:0] $end
$var integer 32 6 tests [31:0] $end
$scope module Tester $end
$var wire 5 7 ctrl_ALUopcode [4:0] $end
$var wire 5 8 ctrl_shiftamt [4:0] $end
$var wire 32 9 data_operandA [31:0] $end
$var wire 32 : data_operandB [31:0] $end
$var wire 1 ! isLessThan $end
$var wire 1 " isNotEqual $end
$var wire 1 # overflow $end
$var wire 32 ; data_result [31:0] $end
$scope module shiftleft $end
$var wire 32 < operandA [31:0] $end
$var wire 5 = shamt [4:0] $end
$var wire 32 > stage8 [31:0] $end
$var wire 32 ? stage4 [31:0] $end
$var wire 32 @ stage2 [31:0] $end
$var wire 32 A stage16 [31:0] $end
$var wire 32 B shiftedNum [31:0] $end
$var wire 32 C shifted8 [31:0] $end
$var wire 32 D shifted4 [31:0] $end
$var wire 32 E shifted2 [31:0] $end
$var wire 32 F shifted16 [31:0] $end
$var wire 32 G shifted1 [31:0] $end
$scope module stage16mux $end
$var wire 32 H in0 [31:0] $end
$var wire 32 I in1 [31:0] $end
$var wire 1 J select $end
$var wire 32 K out [31:0] $end
$upscope $end
$scope module stage1mux $end
$var wire 32 L in1 [31:0] $end
$var wire 1 M select $end
$var wire 32 N out [31:0] $end
$var wire 32 O in0 [31:0] $end
$upscope $end
$scope module stage2mux $end
$var wire 32 P in1 [31:0] $end
$var wire 1 Q select $end
$var wire 32 R out [31:0] $end
$var wire 32 S in0 [31:0] $end
$upscope $end
$scope module stage4mux $end
$var wire 32 T in1 [31:0] $end
$var wire 1 U select $end
$var wire 32 V out [31:0] $end
$var wire 32 W in0 [31:0] $end
$upscope $end
$scope module stage8mux $end
$var wire 32 X in0 [31:0] $end
$var wire 32 Y in1 [31:0] $end
$var wire 1 Z select $end
$var wire 32 [ out [31:0] $end
$upscope $end
$upscope $end
$upscope $end
$upscope $end
$scope module alu_tb $end
$scope module Tester $end
$scope module shiftleft $end
$scope module stage16mux $end
$upscope $end
$scope module stage1mux $end
$upscope $end
$scope module stage2mux $end
$upscope $end
$scope module stage4mux $end
$upscope $end
$scope module stage8mux $end
$upscope $end
$upscope $end
$upscope $end
$upscope $end
$enddefinitions $end
$comment Show the parameter values. $end
$dumpall
$end
#0
$dumpvars
b10001 [
0Z
b1000100000000 Y
b10001 X
b10001 W
b10001 V
0U
b100010000 T
b10001 S
b10001 R
0Q
b1000100 P
b10001 O
b10001 N
0M
b100010 L
b10001 K
0J
b100010000000000000000 I
b10001 H
b100010 G
b100010000000000000000 F
b1000100 E
b100010000 D
b1000100000000 C
b10001 B
b10001 A
b10001 @
b10001 ?
b10001 >
b0 =
b10001 <
b10001 ;
b0 :
b10001 9
b0 8
b100 7
b0 6
b1000 5
b10000000000000000000000000000011 4
b0 3
b10000000000000000000000000000101 2
b10000000000000000000000000000100 1
b11100110110110001101100 0
b111001101101100011011000101111101100101011110000111000000101110011000110111001101110110 /
b11100110110110001101100010111110110010001101001011001100110011000101110011000110111001101110110 .
b111001101101100011011000101111101100001011000110111010001110101011000010110110000101110011000110111001101110110 -
b0 ,
b10001 +
0*
0)
0(
b0 '
b100 &
b10001 %
b10001 $
z#
z"
z!
$end
#100
b100010 $
b100010 ;
b100010 B
b100010 N
1M
b100010 +
b1 ,
b1 8
b1 =
b1 '
b1 :
b1 6
#200
b10001000 G
b10001000 L
b1000100 @
b1000100 O
b1000100 R
b1000100 $
b1000100 ;
b1000100 B
b1000100 N
1Q
0M
b1000100 +
b10 ,
b10 8
b10 =
b10 '
b10 :
b10 6
#300
b10001000 $
b10001000 ;
b10001000 B
b10001000 N
1M
b10001000 +
b11 ,
b11 8
b11 =
b100 '
b100 :
b11 6
#400
b10001000000 E
b10001000000 P
b1000100000 G
b1000100000 L
b100010000 ?
b100010000 S
b100010000 V
b100010000 @
b100010000 O
b100010000 R
b100010000 $
b100010000 ;
b100010000 B
b100010000 N
1U
0Q
0M
b100010000 +
b100 ,
b100 8
b100 =
b1000 '
b1000 :
b100 6
#500
b1000100000 $
b1000100000 ;
b1000100000 B
b1000100000 N
1M
b1000100000 +
b101 ,
b101 8
b101 =
b10000 '
b10000 :
b101 6
#600
b100010000000 G
b100010000000 L
b10001000000 @
b10001000000 O
b10001000000 R
b10001000000 $
b10001000000 ;
b10001000000 B
b10001000000 N
1Q
0M
b10001000000 +
b110 ,
b110 8
b110 =
b100000 '
b100000 :
b110 6
#700
b100010000000 $
b100010000000 ;
b100010000000 B
b100010000000 N
1M
b100010000000 +
b111 ,
b111 8
b111 =
b1000000 '
b1000000 :
b111 6
#800
b10001000000000000 D
b10001000000000000 T
b100010000000000 E
b100010000000000 P
b10001000000000 G
b10001000000000 L
b1000100000000 >
b1000100000000 W
b1000100000000 [
b1000100000000 ?
b1000100000000 S
b1000100000000 V
b1000100000000 @
b1000100000000 O
b1000100000000 R
b1000100000000 $
b1000100000000 ;
b1000100000000 B
b1000100000000 N
1Z
0U
0Q
0M
b1000100000000 +
b1000 ,
b1000 8
b1000 =
b10000000 '
b10000000 :
b1000 6
#900
b10001000000000 $
b10001000000000 ;
b10001000000000 B
b10001000000000 N
1M
b10001000000000 +
b1001 ,
b1001 8
b1001 =
b100000000 '
b100000000 :
b1001 6
#1000
b1000100000000000 G
b1000100000000000 L
b100010000000000 @
b100010000000000 O
b100010000000000 R
b100010000000000 $
b100010000000000 ;
b100010000000000 B
b100010000000000 N
1Q
0M
b100010000000000 +
b1010 ,
b1010 8
b1010 =
b1000000000 '
b1000000000 :
b1010 6
#1100
b1000100000000000 $
b1000100000000000 ;
b1000100000000000 B
b1000100000000000 N
1M
b1000100000000000 +
b1011 ,
b1011 8
b1011 =
b10000000000 '
b10000000000 :
b1011 6
#1200
b1000100000000000000 E
b1000100000000000000 P
b100010000000000000 G
b100010000000000000 L
b10001000000000000 ?
b10001000000000000 S
b10001000000000000 V
b10001000000000000 @
b10001000000000000 O
b10001000000000000 R
b10001000000000000 $
b10001000000000000 ;
b10001000000000000 B
b10001000000000000 N
1U
0Q
0M
b10001000000000000 +
b1100 ,
b1100 8
b1100 =
b100000000000 '
b100000000000 :
b1100 6
#1300
b100010000000000000 $
b100010000000000000 ;
b100010000000000000 B
b100010000000000000 N
1M
b100010000000000000 +
b1101 ,
b1101 8
b1101 =
b1000000000000 '
b1000000000000 :
b1101 6
#1400
b10001000000000000000 G
b10001000000000000000 L
b1000100000000000000 @
b1000100000000000000 O
b1000100000000000000 R
b1000100000000000000 $
b1000100000000000000 ;
b1000100000000000000 B
b1000100000000000000 N
1Q
0M
b1000100000000000000 +
b1110 ,
b1110 8
b1110 =
b10000000000000 '
b10000000000000 :
b1110 6
#1500
b10001000000000000000 $
b10001000000000000000 ;
b10001000000000000000 B
b10001000000000000000 N
1M
b10001000000000000000 +
b1111 ,
b1111 8
b1111 =
b100000000000000 '
b100000000000000 :
b1111 6
#1600
b10001000000000000000000000000 C
b10001000000000000000000000000 Y
b1000100000000000000000000 D
b1000100000000000000000000 T
b10001000000000000000000 E
b10001000000000000000000 P
b1000100000000000000000 G
b1000100000000000000000 L
b100010000000000000000 A
b100010000000000000000 K
b100010000000000000000 X
b100010000000000000000 >
b100010000000000000000 W
b100010000000000000000 [
b100010000000000000000 ?
b100010000000000000000 S
b100010000000000000000 V
b100010000000000000000 @
b100010000000000000000 O
b100010000000000000000 R
b100010000000000000000 $
b100010000000000000000 ;
b100010000000000000000 B
b100010000000000000000 N
1J
0Z
0U
0Q
0M
b100010000000000000000 +
b10000 ,
b10000 8
b10000 =
b1000000000000000 '
b1000000000000000 :
b10000 6
#1700
b1000100000000000000000 $
b1000100000000000000000 ;
b1000100000000000000000 B
b1000100000000000000000 N
1M
b1000100000000000000000 +
b10001 ,
b10001 8
b10001 =
b10000000000000000 '
b10000000000000000 :
b10001 6
#1800
b100010000000000000000000 G
b100010000000000000000000 L
b10001000000000000000000 @
b10001000000000000000000 O
b10001000000000000000000 R
b10001000000000000000000 $
b10001000000000000000000 ;
b10001000000000000000000 B
b10001000000000000000000 N
1Q
0M
b10001000000000000000000 +
b10010 ,
b10010 8
b10010 =
b100000000000000000 '
b100000000000000000 :
b10010 6
#1900
b100010000000000000000000 $
b100010000000000000000000 ;
b100010000000000000000000 B
b100010000000000000000000 N
1M
b100010000000000000000000 +
b10011 ,
b10011 8
b10011 =
b1000000000000000000 '
b1000000000000000000 :
b10011 6
#2000
b100010000000000000000000000 E
b100010000000000000000000000 P
b10001000000000000000000000 G
b10001000000000000000000000 L
b1000100000000000000000000 ?
b1000100000000000000000000 S
b1000100000000000000000000 V
b1000100000000000000000000 @
b1000100000000000000000000 O
b1000100000000000000000000 R
b1000100000000000000000000 $
b1000100000000000000000000 ;
b1000100000000000000000000 B
b1000100000000000000000000 N
1U
0Q
0M
b1000100000000000000000000 +
b10100 ,
b10100 8
b10100 =
b10000000000000000000 '
b10000000000000000000 :
b10100 6
#2100
b10001000000000000000000000 $
b10001000000000000000000000 ;
b10001000000000000000000000 B
b10001000000000000000000000 N
1M
b10001000000000000000000000 +
b10101 ,
b10101 8
b10101 =
b100000000000000000000 '
b100000000000000000000 :
b10101 6
#2200
b1000100000000000000000000000 G
b1000100000000000000000000000 L
b100010000000000000000000000 @
b100010000000000000000000000 O
b100010000000000000000000000 R
b100010000000000000000000000 $
b100010000000000000000000000 ;
b100010000000000000000000000 B
b100010000000000000000000000 N
1Q
0M
b100010000000000000000000000 +
b10110 ,
b10110 8
b10110 =
b1000000000000000000000 '
b1000000000000000000000 :
b10110 6
#2300
b1000100000000000000000000000 $
b1000100000000000000000000000 ;
b1000100000000000000000000000 B
b1000100000000000000000000000 N
1M
b1000100000000000000000000000 +
b10111 ,
b10111 8
b10111 =
b10000000000000000000000 '
b10000000000000000000000 :
b10111 6
#2400
b10000000000000000000000000000 D
b10000000000000000000000000000 T
b1000100000000000000000000000000 E
b1000100000000000000000000000000 P
b100010000000000000000000000000 G
b100010000000000000000000000000 L
b10001000000000000000000000000 >
b10001000000000000000000000000 W
b10001000000000000000000000000 [
b10001000000000000000000000000 ?
b10001000000000000000000000000 S
b10001000000000000000000000000 V
b10001000000000000000000000000 @
b10001000000000000000000000000 O
b10001000000000000000000000000 R
b10001000000000000000000000000 $
b10001000000000000000000000000 ;
b10001000000000000000000000000 B
b10001000000000000000000000000 N
1Z
0U
0Q
0M
b10001000000000000000000000000 +
b11000 ,
b11000 8
b11000 =
b100000000000000000000000 '
b100000000000000000000000 :
b11000 6
#2500
b100010000000000000000000000000 $
b100010000000000000000000000000 ;
b100010000000000000000000000000 B
b100010000000000000000000000000 N
1M
b100010000000000000000000000000 +
b11001 ,
b11001 8
b11001 =
b1000000000000000000000000 '
b1000000000000000000000000 :
b11001 6
#2600
b10001000000000000000000000000000 G
b10001000000000000000000000000000 L
b1000100000000000000000000000000 @
b1000100000000000000000000000000 O
b1000100000000000000000000000000 R
b1000100000000000000000000000000 $
b1000100000000000000000000000000 ;
b1000100000000000000000000000000 B
b1000100000000000000000000000000 N
1Q
0M
b1000100000000000000000000000000 +
b11010 ,
b11010 8
b11010 =
b10000000000000000000000000 '
b10000000000000000000000000 :
b11010 6
#2700
b10001000000000000000000000000000 $
b10001000000000000000000000000000 ;
b10001000000000000000000000000000 B
b10001000000000000000000000000000 N
1M
1*
b10001000000000000000000000000000 +
b11011 ,
b11011 8
b11011 =
b100000000000000000000000000 '
b100000000000000000000000000 :
b11011 6
#2800
b1000000000000000000000000000000 E
b1000000000000000000000000000000 P
b100000000000000000000000000000 G
b100000000000000000000000000000 L
b10000000000000000000000000000 ?
b10000000000000000000000000000 S
b10000000000000000000000000000 V
b10000000000000000000000000000 @
b10000000000000000000000000000 O
b10000000000000000000000000000 R
b10000000000000000000000000000 $
b10000000000000000000000000000 ;
b10000000000000000000000000000 B
b10000000000000000000000000000 N
1U
0Q
0M
b10000000000000000000000000000 +
b11100 ,
b11100 8
b11100 =
b1000000000000000000000000000 '
b1000000000000000000000000000 :
b11100 6
#2900
b100000000000000000000000000000 $
b100000000000000000000000000000 ;
b100000000000000000000000000000 B
b100000000000000000000000000000 N
1M
b100000000000000000000000000000 +
b11101 ,
b11101 8
b11101 =
b10000000000000000000000000000 '
b10000000000000000000000000000 :
b11101 6
#3000
b10000000000000000000000000000000 G
b10000000000000000000000000000000 L
b1000000000000000000000000000000 @
b1000000000000000000000000000000 O
b1000000000000000000000000000000 R
b1000000000000000000000000000000 $
b1000000000000000000000000000000 ;
b1000000000000000000000000000000 B
b1000000000000000000000000000000 N
1Q
0M
b1000000000000000000000000000000 +
b11110 ,
b11110 8
b11110 =
b11110 6
#3100
b10000000000000000000000000000000 $
b10000000000000000000000000000000 ;
b10000000000000000000000000000000 B
b10000000000000000000000000000000 N
1M
b10000000000000000000000000000000 +
b11111 ,
b11111 8
b11111 =
b11111 6
#3200
b11111111111111111111111111111111 5
b100000 6
