ECE 350/Stuffs/Checkpoint1_ALU/alu-main/sra.vcd
$date
	Wed Jan 24 22:56:28 2024
$end
$version
	Icarus Verilog
$end
$timescale
	100ps
$end
$scope module alu_tb $end
$var wire 1 ! LT $end
$var wire 1 " NE $end
$var wire 1 # OVF $end
$var wire 32 $ Res [31:0] $end
$var reg 32 % A [31:0] $end
$var reg 5 & ALU_OP [4:0] $end
$var reg 32 ' B [31:0] $end
$var reg 1 ( ExpLT $end
$var reg 1 ) ExpNE $end
$var reg 1 * ExpOVF $end
$var reg 32 + ExpRes [31:0] $end
$var reg 5 , Shift_Amt [4:0] $end
$var reg 128 - actFileName [127:0] $end
$var reg 128 . diffFileName [127:0] $end
$var reg 128 / expFileName [127:0] $end
$var reg 128 0 testName [127:0] $end
$var integer 32 1 actFile [31:0] $end
$var integer 32 2 diffFile [31:0] $end
$var integer 32 3 errors [31:0] $end
$var integer 32 4 expFile [31:0] $end
$var integer 32 5 expScan [31:0] $end
$var integer 32 6 tests [31:0] $end
$scope module Tester $end
$var wire 5 7 ctrl_ALUopcode [4:0] $end
$var wire 5 8 ctrl_shiftamt [4:0] $end
$var wire 32 9 data_operandA [31:0] $end
$var wire 32 : data_operandB [31:0] $end
$var wire 1 ! isLessThan $end
$var wire 1 " isNotEqual $end
$var wire 1 # overflow $end
$var wire 32 ; data_result [31:0] $end
$scope module bitAnd $end
$var wire 32 < operandA [31:0] $end
$var wire 32 = operandB [31:0] $end
$var wire 32 > andedNum [31:0] $end
$upscope $end
$upscope $end
$upscope $end
$scope module alu_tb $end
$scope module Tester $end
$scope module bitAnd $end
$upscope $end
$upscope $end
$upscope $end
$enddefinitions $end
$comment Show the parameter values. $end
$dumpall
$end
#0
$dumpvars
b0 >
b1 =
b1000 <
b0 ;
b1 :
b1000 9
b0 8
b100 7
b0 6
b1000 5
b10000000000000000000000000000011 4
b0 3
b10000000000000000000000000000101 2
b10000000000000000000000000000100 1
b11100110111001001100001 0
b111001101110010011000010101111101100101011110000111000000101110011000110111001101110110 /
b11100110111001001100001010111110110010001101001011001100110011000101110011000110111001101110110 .
b111001101110010011000010101111101100001011000110111010001110101011000010110110000101110011000110111001101110110 -
b0 ,
b1000 +
0*
0)
0(
b1 '
b100 &
b1000 %
b0 $
z#
z"
z!
$end
#100
b1111111111111111111110100101100 $
b1111111111111111111110100101100 ;
b1111111111111111111110100101100 >
b111111111111111111111010010110 +
b1 ,
b1 8
b11111111111111111111111111111110 '
b11111111111111111111111111111110 :
b11111111111111111111111111111110 =
b1111111111111111111110100101101 %
b1111111111111111111110100101101 9
b1111111111111111111110100101101 <
b1 3
b1 6
#200
b100 $
b100 ;
b100 >
b11111111111111111111101001011 +
b10 ,
b10 8
b100 '
b100 :
b100 =
b10 3
b10 6
#300
b1111111111111111111110100101000 $
b1111111111111111111110100101000 ;
b1111111111111111111110100101000 >
b1111111111111111111110100101 +
b11 ,
b11 8
b11111111111111111111111111111000 '
b11111111111111111111111111111000 :
b11111111111111111111111111111000 =
b11 3
b11 6
#400
b0 $
b0 ;
b0 >
b111111111111111111111010010 +
b100 ,
b100 8
b10000 '
b10000 :
b10000 =
b100 3
b100 6
#500
b1111111111111111111110100100000 $
b1111111111111111111110100100000 ;
b1111111111111111111110100100000 >
b11111111111111111111101001 +
b101 ,
b101 8
b11111111111111111111111111100000 '
b11111111111111111111111111100000 :
b11111111111111111111111111100000 =
b101 3
b101 6
#600
b0 $
b0 ;
b0 >
b1111111111111111111110100 +
b110 ,
b110 8
b1000000 '
b1000000 :
b1000000 =
b110 3
b110 6
#700
b1111111111111111111110100000000 $
b1111111111111111111110100000000 ;
b1111111111111111111110100000000 >
b111111111111111111111010 +
b111 ,
b111 8
b11111111111111111111111110000000 '
b11111111111111111111111110000000 :
b11111111111111111111111110000000 =
b111 3
b111 6
#800
b100000000 $
b100000000 ;
b100000000 >
b11111111111111111111101 +
b1000 ,
b1000 8
b100000000 '
b100000000 :
b100000000 =
b1000 3
b1000 6
#900
b1111111111111111111110000000000 $
b1111111111111111111110000000000 ;
b1111111111111111111110000000000 >
b1111111111111111111110 +
b1001 ,
b1001 8
b11111111111111111111111000000000 '
b11111111111111111111111000000000 :
b11111111111111111111111000000000 =
b1001 3
b1001 6
#1000
b10000000000 $
b10000000000 ;
b10000000000 >
b111111111111111111111 +
b1010 ,
b1010 8
b10000000000 '
b10000000000 :
b10000000000 =
b1010 3
b1010 6
#1100
b1111111111111111111100000000000 $
b1111111111111111111100000000000 ;
b1111111111111111111100000000000 >
b11111111111111111111 +
b1011 ,
b1011 8
b11111111111111111111100000000000 '
b11111111111111111111100000000000 :
b11111111111111111111100000000000 =
b1011 3
b1011 6
#1200
b1000000000000 $
b1000000000000 ;
b1000000000000 >
b1111111111111111111 +
b1100 ,
b1100 8
b1000000000000 '
b1000000000000 :
b1000000000000 =
b1100 3
b1100 6
#1300
b1111111111111111110000000000000 $
b1111111111111111110000000000000 ;
b1111111111111111110000000000000 >
b111111111111111111 +
b1101 ,
b1101 8
b11111111111111111110000000000000 '
b11111111111111111110000000000000 :
b11111111111111111110000000000000 =
b1101 3
b1101 6
#1400
b100000000000000 $
b100000000000000 ;
b100000000000000 >
b11111111111111111 +
b1110 ,
b1110 8
b100000000000000 '
b100000000000000 :
b100000000000000 =
b1110 3
b1110 6
#1500
b1111111111111111000000000000000 $
b1111111111111111000000000000000 ;
b1111111111111111000000000000000 >
b1111111111111111 +
b1111 ,
b1111 8
b11111111111111111000000000000000 '
b11111111111111111000000000000000 :
b11111111111111111000000000000000 =
b1111 3
b1111 6
#1600
b10000000000000000 $
b10000000000000000 ;
b10000000000000000 >
b111111111111111 +
b10000 ,
b10000 8
b10000000000000000 '
b10000000000000000 :
b10000000000000000 =
b10000 3
b10000 6
#1700
b1111111111111100000000000000000 $
b1111111111111100000000000000000 ;
b1111111111111100000000000000000 >
b11111111111111 +
b10001 ,
b10001 8
b11111111111111100000000000000000 '
b11111111111111100000000000000000 :
b11111111111111100000000000000000 =
b10001 3
b10001 6
#1800
b1000000000000000000 $
b1000000000000000000 ;
b1000000000000000000 >
b1111111111111 +
b10010 ,
b10010 8
b1000000000000000000 '
b1000000000000000000 :
b1000000000000000000 =
b10010 3
b10010 6
#1900
b1111111111110000000000000000000 $
b1111111111110000000000000000000 ;
b1111111111110000000000000000000 >
b111111111111 +
b10011 ,
b10011 8
b11111111111110000000000000000000 '
b11111111111110000000000000000000 :
b11111111111110000000000000000000 =
b10011 3
b10011 6
#2000
b100000000000000000000 $
b100000000000000000000 ;
b100000000000000000000 >
b11111111111 +
b10100 ,
b10100 8
b100000000000000000000 '
b100000000000000000000 :
b100000000000000000000 =
b10100 3
b10100 6
#2100
b1111111111000000000000000000000 $
b1111111111000000000000000000000 ;
b1111111111000000000000000000000 >
b1111111111 +
b10101 ,
b10101 8
b11111111111000000000000000000000 '
b11111111111000000000000000000000 :
b11111111111000000000000000000000 =
b10101 3
b10101 6
#2200
b10000000000000000000000 $
b10000000000000000000000 ;
b10000000000000000000000 >
b111111111 +
b10110 ,
b10110 8
b10000000000000000000000 '
b10000000000000000000000 :
b10000000000000000000000 =
b10110 3
b10110 6
#2300
b1111111100000000000000000000000 $
b1111111100000000000000000000000 ;
b1111111100000000000000000000000 >
b11111111 +
b10111 ,
b10111 8
b11111111100000000000000000000000 '
b11111111100000000000000000000000 :
b11111111100000000000000000000000 =
b10111 3
b10111 6
#2400
b1000000000000000000000000 $
b1000000000000000000000000 ;
b1000000000000000000000000 >
b1111111 +
b11000 ,
b11000 8
b1000000000000000000000000 '
b1000000000000000000000000 :
b1000000000000000000000000 =
b11000 3
b11000 6
#2500
b1111110000000000000000000000000 $
b1111110000000000000000000000000 ;
b1111110000000000000000000000000 >
b111111 +
b11001 ,
b11001 8
b11111110000000000000000000000000 '
b11111110000000000000000000000000 :
b11111110000000000000000000000000 =
b11001 3
b11001 6
#2600
b100000000000000000000000000 $
b100000000000000000000000000 ;
b100000000000000000000000000 >
b11111 +
b11010 ,
b11010 8
b100000000000000000000000000 '
b100000000000000000000000000 :
b100000000000000000000000000 =
b11010 3
b11010 6
#2700
b1111000000000000000000000000000 $
b1111000000000000000000000000000 ;
b1111000000000000000000000000000 >
b1111 +
b11011 ,
b11011 8
b11111000000000000000000000000000 '
b11111000000000000000000000000000 :
b11111000000000000000000000000000 =
b11011 3
b11011 6
#2800
b10000000000000000000000000000 $
b10000000000000000000000000000 ;
b10000000000000000000000000000 >
b111 +
b11100 ,
b11100 8
b10000000000000000000000000000 '
b10000000000000000000000000000 :
b10000000000000000000000000000 =
b11100 3
b11100 6
#2900
b1100000000000000000000000000000 $
b1100000000000000000000000000000 ;
b1100000000000000000000000000000 >
b11 +
b11101 ,
b11101 8
b11100000000000000000000000000000 '
b11100000000000000000000000000000 :
b11100000000000000000000000000000 =
b11101 3
b11101 6
#3000
b1000000000000000000000000000000 $
b1000000000000000000000000000000 ;
b1000000000000000000000000000000 >
b1 +
b11110 ,
b11110 8
b1000000000000000000000000000000 '
b1000000000000000000000000000000 :
b1000000000000000000000000000000 =
b11110 3
b11110 6
#3100
b0 $
b0 ;
b0 >
b0 +
b11111 ,
b11111 8
b10000000000000000000000000000000 '
b10000000000000000000000000000000 :
b10000000000000000000000000000000 =
b11111 3
b11111 6
#3200
b10000000 +
b0 ,
b0 8
b1 '
b1 :
b1 =
b10000000 %
b10000000 9
b10000000 <
b100000 6
#3300
b10000000 $
b10000000 ;
b10000000 >
b1000000 +
b1 ,
b1 8
b11111111111111111111111111111110 '
b11111111111111111111111111111110 :
b11111111111111111111111111111110 =
b100000 3
b100001 6
#3400
b0 $
b0 ;
b0 >
b100000 +
b10 ,
b10 8
b100 '
b100 :
b100 =
b100001 3
b100010 6
#3500
b10000000 $
b10000000 ;
b10000000 >
b10000 +
b11 ,
b11 8
b11111111111111111111111111111000 '
b11111111111111111111111111111000 :
b11111111111111111111111111111000 =
b100010 3
b100011 6
#3600
b0 $
b0 ;
b0 >
b1000 +
b100 ,
b100 8
b10000 '
b10000 :
b10000 =
b100011 3
b100100 6
#3700
b10000000 $
b10000000 ;
b10000000 >
b100 +
b101 ,
b101 8
b11111111111111111111111111100000 '
b11111111111111111111111111100000 :
b11111111111111111111111111100000 =
b100100 3
b100101 6
#3800
b0 $
b0 ;
b0 >
b10 +
b110 ,
b110 8
b1000000 '
b1000000 :
b1000000 =
b100101 3
b100110 6
#3900
b10000000 $
b10000000 ;
b10000000 >
b1 +
b111 ,
b111 8
b11111111111111111111111110000000 '
b11111111111111111111111110000000 :
b11111111111111111111111110000000 =
b100110 3
b100111 6
#4000
b0 $
b0 ;
b0 >
b0 +
b1000 ,
b1000 8
b100000000 '
b100000000 :
b100000000 =
b100111 3
b101000 6
#4100
b1001 ,
b1001 8
b11111111111111111111111000000000 '
b11111111111111111111111000000000 :
b11111111111111111111111000000000 =
b101001 6
#4200
b1010 ,
b1010 8
b10000000000 '
b10000000000 :
b10000000000 =
b101010 6
#4300
b1011 ,
b1011 8
b11111111111111111111100000000000 '
b11111111111111111111100000000000 :
b11111111111111111111100000000000 =
b101011 6
#4400
b1100 ,
b1100 8
b1000000000000 '
b1000000000000 :
b1000000000000 =
b101100 6
#4500
b1101 ,
b1101 8
b11111111111111111110000000000000 '
b11111111111111111110000000000000 :
b11111111111111111110000000000000 =
b101101 6
#4600
b1110 ,
b1110 8
b100000000000000 '
b100000000000000 :
b100000000000000 =
b101110 6
#4700
b1111 ,
b1111 8
b11111111111111111000000000000000 '
b11111111111111111000000000000000 :
b11111111111111111000000000000000 =
b101111 6
#4800
b10000 ,
b10000 8
b10000000000000000 '
b10000000000000000 :
b10000000000000000 =
b110000 6
#4900
b10001 ,
b10001 8
b11111111111111100000000000000000 '
b11111111111111100000000000000000 :
b11111111111111100000000000000000 =
b110001 6
#5000
b10010 ,
b10010 8
b1000000000000000000 '
b1000000000000000000 :
b1000000000000000000 =
b110010 6
#5100
b10011 ,
b10011 8
b11111111111110000000000000000000 '
b11111111111110000000000000000000 :
b11111111111110000000000000000000 =
b110011 6
#5200
b10100 ,
b10100 8
b100000000000000000000 '
b100000000000000000000 :
b100000000000000000000 =
b110100 6
#5300
b10101 ,
b10101 8
b11111111111000000000000000000000 '
b11111111111000000000000000000000 :
b11111111111000000000000000000000 =
b110101 6
#5400
b10110 ,
b10110 8
b10000000000000000000000 '
b10000000000000000000000 :
b10000000000000000000000 =
b110110 6
#5500
b10111 ,
b10111 8
b11111111100000000000000000000000 '
b11111111100000000000000000000000 :
b11111111100000000000000000000000 =
b110111 6
#5600
b11000 ,
b11000 8
b1000000000000000000000000 '
b1000000000000000000000000 :
b1000000000000000000000000 =
b111000 6
#5700
b11001 ,
b11001 8
b11111110000000000000000000000000 '
b11111110000000000000000000000000 :
b11111110000000000000000000000000 =
b111001 6
#5800
b11010 ,
b11010 8
b100000000000000000000000000 '
b100000000000000000000000000 :
b100000000000000000000000000 =
b111010 6
#5900
b11011 ,
b11011 8
b11111000000000000000000000000000 '
b11111000000000000000000000000000 :
b11111000000000000000000000000000 =
b111011 6
#6000
b11100 ,
b11100 8
b10000000000000000000000000000 '
b10000000000000000000000000000 :
b10000000000000000000000000000 =
b111100 6
#6100
b11101 ,
b11101 8
b11100000000000000000000000000000 '
b11100000000000000000000000000000 :
b11100000000000000000000000000000 =
b111101 6
#6200
b11110 ,
b11110 8
b1000000000000000000000000000000 '
b1000000000000000000000000000000 :
b1000000000000000000000000000000 =
b111110 6
#6300
b11111 ,
b11111 8
b10000000000000000000000000000000 '
b10000000000000000000000000000000 :
b10000000000000000000000000000000 =
b111111 6
#6400
b11111111111111111111111111111111 5
b1000000 6
