ECE 350/Stuffs/Checkpoint1_ALU/alu-main/sub.vcd
$date
	Sun Jan 28 15:36:37 2024
$end
$version
	Icarus Verilog
$end
$timescale
	100ps
$end
$scope module alu_tb $end
$var wire 32 ! Res [31:0] $end
$var wire 1 " OVF $end
$var wire 1 # NE $end
$var wire 1 $ LT $end
$var reg 32 % A [31:0] $end
$var reg 5 & ALU_OP [4:0] $end
$var reg 32 ' B [31:0] $end
$var reg 1 ( ExpLT $end
$var reg 1 ) ExpNE $end
$var reg 1 * ExpOVF $end
$var reg 32 + ExpRes [31:0] $end
$var reg 5 , Shift_Amt [4:0] $end
$var reg 128 - actFileName [127:0] $end
$var reg 128 . diffFileName [127:0] $end
$var reg 128 / expFileName [127:0] $end
$var reg 128 0 testName [127:0] $end
$var integer 32 1 actFile [31:0] $end
$var integer 32 2 diffFile [31:0] $end
$var integer 32 3 errors [31:0] $end
$var integer 32 4 expFile [31:0] $end
$var integer 32 5 expScan [31:0] $end
$var integer 32 6 tests [31:0] $end
$scope module Tester $end
$var wire 1 7 const_one $end
$var wire 5 8 ctrl_ALUopcode [4:0] $end
$var wire 5 9 ctrl_shiftamt [4:0] $end
$var wire 32 : data_operandA [31:0] $end
$var wire 32 ; data_operandB [31:0] $end
$var wire 1 " overflow $end
$var wire 1 # isNotEqual $end
$var wire 1 $ isLessThan $end
$var wire 32 < flipped [31:0] $end
$var wire 32 = data_result [31:0] $end
$scope module AddAB $end
$var wire 1 7 carry_in $end
$var wire 32 > operandA [31:0] $end
$var wire 1 ? temp_c8 $end
$var wire 1 @ temp_c32 $end
$var wire 1 A temp_c24 $end
$var wire 1 B temp_c16 $end
$var wire 32 C propogateBits [31:0] $end
$var wire 32 D out [31:0] $end
$var wire 32 E operandB [31:0] $end
$var wire 32 F generateBits [31:0] $end
$var wire 32 G carryBitsMain [31:0] $end
$scope module L2_block $end
$var wire 1 H G0 $end
$var wire 1 I G1 $end
$var wire 1 J G2 $end
$var wire 1 K G3 $end
$var wire 1 L P0 $end
$var wire 1 M P1 $end
$var wire 1 N P2 $end
$var wire 1 O P3 $end
$var wire 1 P aa $end
$var wire 1 Q ab $end
$var wire 1 R ac $end
$var wire 1 S ad $end
$var wire 1 T ae $end
$var wire 1 U af $end
$var wire 1 V ag $end
$var wire 1 W ah $end
$var wire 1 X ba $end
$var wire 1 Y bb $end
$var wire 1 Z bc $end
$var wire 1 [ bd $end
$var wire 1 \ be $end
$var wire 1 ] bf $end
$var wire 1 ^ bg $end
$var wire 1 _ bh $end
$var wire 1 ` bi $end
$var wire 1 B c16 $end
$var wire 1 A c24 $end
$var wire 1 @ c32 $end
$var wire 1 ? c8 $end
$var wire 1 7 cIn $end
$var wire 1 a ca $end
$var wire 1 b cb $end
$var wire 1 c cc $end
$var wire 1 d cd $end
$var wire 1 e ce $end
$var wire 1 f cf $end
$var wire 1 g cg $end
$var wire 1 h ch $end
$var wire 1 i ci $end
$var wire 1 j cj $end
$var wire 1 k da $end
$var wire 1 l db $end
$var wire 1 m dc $end
$var wire 1 n dd $end
$var wire 1 o de $end
$var wire 1 p df $end
$var wire 1 q dg $end
$var wire 1 r dh $end
$var wire 1 s di $end
$var wire 1 t dj $end
$var wire 1 u dk $end
$var wire 32 v p [31:0] $end
$var wire 32 w g [31:0] $end
$upscope $end
$scope module bits0_7Block $end
$var wire 1 x a $end
$var wire 1 y a0 $end
$var wire 1 z b $end
$var wire 1 { c $end
$var wire 1 7 cIn $end
$var wire 1 | d $end
$var wire 1 } e $end
$var wire 1 ~ f $end
$var wire 8 !" g [7:0] $end
$var wire 1 "" g1 $end
$var wire 1 #" h $end
$var wire 1 $" hex $end
$var wire 1 %" i $end
$var wire 1 &" j $end
$var wire 1 '" k $end
$var wire 1 (" l $end
$var wire 1 )" m $end
$var wire 1 *" n $end
$var wire 1 +" o $end
$var wire 1 ," omeg $end
$var wire 8 -" p [7:0] $end
$var wire 1 ." p1 $end
$var wire 1 /" q $end
$var wire 1 0" r $end
$var wire 1 1" s $end
$var wire 1 2" t $end
$var wire 1 3" u $end
$var wire 1 4" v $end
$var wire 1 5" w $end
$var wire 1 6" y $end
$var wire 1 7" zed $end
$var wire 8 8" carryBits [7:0] $end
$upscope $end
$scope module bits16_23Block $end
$var wire 1 9" a $end
$var wire 1 :" a0 $end
$var wire 1 ;" b $end
$var wire 1 <" c $end
$var wire 1 B cIn $end
$var wire 1 =" d $end
$var wire 1 >" e $end
$var wire 1 ?" f $end
$var wire 8 @" g [7:0] $end
$var wire 1 A" g1 $end
$var wire 1 B" h $end
$var wire 1 C" hex $end
$var wire 1 D" i $end
$var wire 1 E" j $end
$var wire 1 F" k $end
$var wire 1 G" l $end
$var wire 1 H" m $end
$var wire 1 I" n $end
$var wire 1 J" o $end
$var wire 1 K" omeg $end
$var wire 8 L" p [7:0] $end
$var wire 1 M" p1 $end
$var wire 1 N" q $end
$var wire 1 O" r $end
$var wire 1 P" s $end
$var wire 1 Q" t $end
$var wire 1 R" u $end
$var wire 1 S" v $end
$var wire 1 T" w $end
$var wire 1 U" y $end
$var wire 1 V" zed $end
$var wire 8 W" carryBits [7:0] $end
$upscope $end
$scope module bits24_31Block $end
$var wire 1 X" a $end
$var wire 1 Y" a0 $end
$var wire 1 Z" b $end
$var wire 1 [" c $end
$var wire 1 A cIn $end
$var wire 1 \" d $end
$var wire 1 ]" e $end
$var wire 1 ^" f $end
$var wire 8 _" g [7:0] $end
$var wire 1 `" g1 $end
$var wire 1 a" h $end
$var wire 1 b" hex $end
$var wire 1 c" i $end
$var wire 1 d" j $end
$var wire 1 e" k $end
$var wire 1 f" l $end
$var wire 1 g" m $end
$var wire 1 h" n $end
$var wire 1 i" o $end
$var wire 1 j" omeg $end
$var wire 8 k" p [7:0] $end
$var wire 1 l" p1 $end
$var wire 1 m" q $end
$var wire 1 n" r $end
$var wire 1 o" s $end
$var wire 1 p" t $end
$var wire 1 q" u $end
$var wire 1 r" v $end
$var wire 1 s" w $end
$var wire 1 t" y $end
$var wire 1 u" zed $end
$var wire 8 v" carryBits [7:0] $end
$upscope $end
$scope module bits8_15Block $end
$var wire 1 w" a $end
$var wire 1 x" a0 $end
$var wire 1 y" b $end
$var wire 1 z" c $end
$var wire 1 ? cIn $end
$var wire 1 {" d $end
$var wire 1 |" e $end
$var wire 1 }" f $end
$var wire 8 ~" g [7:0] $end
$var wire 1 !# g1 $end
$var wire 1 "# h $end
$var wire 1 ## hex $end
$var wire 1 $# i $end
$var wire 1 %# j $end
$var wire 1 &# k $end
$var wire 1 '# l $end
$var wire 1 (# m $end
$var wire 1 )# n $end
$var wire 1 *# o $end
$var wire 1 +# omeg $end
$var wire 8 ,# p [7:0] $end
$var wire 1 -# p1 $end
$var wire 1 .# q $end
$var wire 1 /# r $end
$var wire 1 0# s $end
$var wire 1 1# t $end
$var wire 1 2# u $end
$var wire 1 3# v $end
$var wire 1 4# w $end
$var wire 1 5# y $end
$var wire 1 6# zed $end
$var wire 8 7# carryBits [7:0] $end
$upscope $end
$scope module gFunc $end
$var wire 32 8# operandA [31:0] $end
$var wire 32 9# out [31:0] $end
$var wire 32 :# operandB [31:0] $end
$upscope $end
$scope module pFunc $end
$var wire 32 ;# operandA [31:0] $end
$var wire 32 <# out [31:0] $end
$var wire 32 =# operandB [31:0] $end
$upscope $end
$upscope $end
$scope module bitFlopped $end
$var wire 32 ># inputNum [31:0] $end
$var wire 32 ?# out [31:0] $end
$upscope $end
$scope module isItLessThan $end
$var wire 1 @# const_0 $end
$var wire 1 A# const_1 $end
$var wire 32 B# inputNum [31:0] $end
$var wire 1 C# isThereAnOverflow $end
$var wire 1 $ out $end
$upscope $end
$scope module isItNotEqual $end
$var wire 32 D# inputNum [31:0] $end
$var wire 1 # out $end
$var wire 1 E# w1 $end
$var wire 1 F# w2 $end
$var wire 1 G# w3 $end
$var wire 1 H# w4 $end
$upscope $end
$scope module isItThereOverflow $end
$var wire 32 I# addResult [31:0] $end
$var wire 1 J# case1 $end
$var wire 1 K# case2 $end
$var wire 1 L# notA $end
$var wire 1 M# notB $end
$var wire 1 N# notResult $end
$var wire 32 O# operandA [31:0] $end
$var wire 32 P# operandB [31:0] $end
$var wire 1 " out $end
$upscope $end
$upscope $end
$upscope $end
$scope module alu_tb $end
$scope module Tester $end
$scope module AddAB $end
$scope module L2_block $end
$upscope $end
$scope module bits0_7Block $end
$upscope $end
$scope module bits16_23Block $end
$upscope $end
$scope module bits24_31Block $end
$upscope $end
$scope module bits8_15Block $end
$upscope $end
$scope module gFunc $end
$upscope $end
$scope module pFunc $end
$upscope $end
$upscope $end
$scope module bitFlopped $end
$upscope $end
$scope module isItLessThan $end
$upscope $end
$scope module isItNotEqual $end
$upscope $end
$scope module isItThereOverflow $end
$upscope $end
$upscope $end
$upscope $end
$enddefinitions $end
$comment Show the parameter values. $end
$dumpall
$end
#0
$dumpvars
b11111111111111111111111111111110 P#
b0 O#
0N#
0M#
1L#
0K#
0J#
b11111111111111111111111111111111 I#
1H#
1G#
1F#
1E#
b11111111111111111111111111111111 D#
zC#
b11111111111111111111111111111111 B#
1A#
0@#
b11111111111111111111111111111110 ?#
b1 >#
b11111111111111111111111111111110 =#
b11111111111111111111111111111110 <#
b0 ;#
b11111111111111111111111111111110 :#
b0 9#
b0 8#
b0 7#
06#
05#
04#
03#
02#
01#
00#
0/#
0.#
0-#
b11111111 ,#
0+#
0*#
0)#
0(#
0'#
0&#
0%#
0$#
0##
0"#
0!#
b0 ~"
0}"
0|"
0{"
0z"
0y"
0x"
0w"
b0 v"
0u"
0t"
0s"
0r"
0q"
0p"
0o"
0n"
0m"
0l"
b11111111 k"
0j"
0i"
0h"
0g"
0f"
0e"
0d"
0c"
0b"
0a"
0`"
b0 _"
0^"
0]"
0\"
0["
0Z"
0Y"
0X"
b0 W"
0V"
0U"
0T"
0S"
0R"
0Q"
0P"
0O"
0N"
0M"
b11111111 L"
0K"
0J"
0I"
0H"
0G"
0F"
0E"
0D"
0C"
0B"
0A"
b0 @"
0?"
0>"
0="
0<"
0;"
0:"
09"
b1 8"
07"
06"
05"
04"
03"
02"
01"
00"
0/"
0."
b11111110 -"
0,"
0+"
0*"
0)"
0("
0'"
0&"
0%"
0$"
0#"
0""
b0 !"
0~
0}
0|
0{
0z
0y
0x
b0 w
b11111111111111111111111111111110 v
0u
0t
0s
0r
0q
0p
0o
0n
0m
0l
0k
0j
0i
0h
0g
0f
0e
0d
0c
0b
0a
0`
0_
0^
0]
0\
0[
0Z
0Y
0X
0W
0V
0U
0T
0S
0R
0Q
0P
1O
1N
1M
0L
0K
0J
0I
0H
b1 G
b0 F
b11111111111111111111111111111110 E
b11111111111111111111111111111111 D
b11111111111111111111111111111110 C
0B
0A
0@
0?
b0 >
b11111111111111111111111111111111 =
b11111111111111111111111111111110 <
b1 ;
b0 :
b0 9
b1 8
17
b0 6
b1000 5
b10000000000000000000000000000011 4
b0 3
b10000000000000000000000000000101 2
b10000000000000000000000000000100 1
b11100110111010101100010 0
b111001101110101011000100101111101100101011110000111000000101110011000110111001101110110 /
b11100110111010101100010010111110110010001101001011001100110011000101110011000110111001101110110 .
b111001101110101011000100101111101100001011000110111010001110101011000010110110000101110011000110111001101110110 -
b0 ,
b11111111111111111111111111111111 +
0*
1)
1(
b1 '
b1 &
b0 %
1$
1#
0"
b11111111111111111111111111111111 !
$end
#100
1)"
10"
17"
1$#
1)#
10#
1+#
1D"
1I"
1P"
1K"
1c"
1h"
1o"
1j"
1V
1x
1|
1#"
1x"
1y"
1|"
1:"
1;"
1>"
1Y"
1Z"
1]"
1@
1u
1#
1?
1_
1i
1t
0/"
0$"
06"
1B
0h
0s
0(#
0.#
0/#
0##
05#
06#
1A
0r
0H"
0N"
0O"
0C"
0U"
0V"
0g"
0m"
0n"
0b"
0t"
0u"
1W
1`
1j
1%"
1*"
11"
1,"
1E#
0F#
0G#
0H#
0U
0T
0S
1H
0{
b11111111 8"
0~
0""
0&"
0'"
0("
02"
0+"
0."
03"
04"
05"
0^
0]
0\
0[
0I
0w"
0z"
0{"
b11111111 7#
0}"
0!#
0"#
0%#
0&#
0'#
01#
0*#
0-#
02#
03#
04#
0g
0f
0e
0d
0J
09"
0<"
0="
b11111111 W"
0?"
0A"
0B"
0E"
0F"
0G"
0Q"
0J"
0M"
0R"
0S"
0T"
0q
0p
0o
0n
0K
0X"
0["
0\"
b11111111111111111111111111111111 G
b11111111 v"
0^"
0`"
0a"
0d"
0e"
0f"
0p"
0i"
0l"
0q"
0r"
0s"
1L
1y
1z
1}
1M#
1N#
0R
0Q
0P
0Z
0Y
0X
0c
0b
0a
0m
0l
0k
0$
b1 !"
b0 ~"
b0 @"
b0 _"
b11111111 -"
b1 <
b1 E
b1 :#
b1 =#
b1 ?#
b1 P#
b1 !
b1 =
b1 D
b1 B#
b1 D#
b1 I#
b1 F
b1 w
b1 9#
b11111111111111111111111111111111 C
b11111111111111111111111111111111 v
b11111111111111111111111111111111 <#
0L#
0(
b1 +
b11111111111111111111111111111110 '
b11111111111111111111111111111110 ;
b11111111111111111111111111111110 >#
b11111111111111111111111111111111 %
b11111111111111111111111111111111 :
b11111111111111111111111111111111 >
b11111111111111111111111111111111 8#
b11111111111111111111111111111111 ;#
b11111111111111111111111111111111 O#
b1 6
#200
1g"
1m"
1n"
1b"
1t"
1u"
1r
1H"
1N"
1O"
1C"
1U"
1V"
1h
1s
1(#
1.#
1/#
1##
15#
16#
1/"
16"
1K
1n
1o
1p
1q
1X"
1["
1\"
1^"
1`"
1a"
1d"
1e"
1f"
1p"
1i"
1l"
1q"
1r"
1s"
1H#
1J
1d
1e
1f
1g
19"
1<"
1="
1?"
1A"
1B"
1E"
1F"
1G"
1Q"
1J"
1M"
1R"
1S"
1T"
1G#
1I
1[
1\
1]
1^
1w"
1z"
1{"
1}"
1!#
1"#
1%#
1&#
1'#
11#
1*#
1-#
12#
13#
14#
1F#
1S
1U
1{
1""
1&"
1("
12"
1+"
13"
14"
15"
0N#
1k
1l
1m
1a
1b
1c
1X
1Y
1Z
1P
1Q
1R
1#
0)"
00"
07"
0"
1$
b11111111 _"
b11111111 @"
b11111111 ~"
1E#
0V
0x
0|
0#"
0M#
0K#
b11111010 !"
b11111111111111111111111111111011 <
b11111111111111111111111111111011 E
b11111111111111111111111111111011 :#
b11111111111111111111111111111011 =#
b11111111111111111111111111111011 ?#
b11111111111111111111111111111011 P#
b11111111111111111111111111111010 !
b11111111111111111111111111111010 =
b11111111111111111111111111111010 D
b11111111111111111111111111111010 B#
b11111111111111111111111111111010 D#
b11111111111111111111111111111010 I#
b11111111111111111111111111111010 F
b11111111111111111111111111111010 w
b11111111111111111111111111111010 9#
1(
b11111111111111111111111111111010 +
b100 '
b100 ;
b100 >#
b11111111111111111111111111111110 %
b11111111111111111111111111111110 :
b11111111111111111111111111111110 >
b11111111111111111111111111111110 8#
b11111111111111111111111111111110 ;#
b11111111111111111111111111111110 O#
b10 6
#300
0r
0h
0s
0K
0J
0I
0g"
0m"
0n"
0b"
0t"
0u"
0H"
0N"
0O"
0C"
0U"
0V"
0(#
0.#
0/#
0##
05#
06#
1$"
0n
0o
0p
0q
0X"
0["
0\"
0^"
0`"
0a"
0d"
0e"
0f"
0p"
0i"
0l"
0q"
0r"
0s"
0H#
0d
0e
0f
0g
09"
0<"
0="
0?"
0A"
0B"
0E"
0F"
0G"
0Q"
0J"
0M"
0R"
0S"
0T"
0G#
0[
0\
0]
0^
0w"
0z"
0{"
0}"
0!#
0"#
0%#
0&#
0'#
01#
0*#
0-#
02#
03#
04#
0F#
0S
1T
1~
0&"
1'"
02"
0+"
1."
03"
04"
05"
1N#
0k
0l
0m
0a
0b
0c
0X
0Y
0Z
0P
0Q
0R
0/"
06"
0$
b0 _"
b0 @"
b0 ~"
0U
0{
0""
0("
1M#
b100 !"
b111 <
b111 E
b111 :#
b111 =#
b111 ?#
b111 P#
b100 !
b100 =
b100 D
b100 B#
b100 D#
b100 I#
b100 F
b100 w
b100 9#
0(
b100 +
b11111111111111111111111111111000 '
b11111111111111111111111111111000 ;
b11111111111111111111111111111000 >#
b11111111111111111111111111111100 %
b11111111111111111111111111111100 :
b11111111111111111111111111111100 >
b11111111111111111111111111111100 8#
b11111111111111111111111111111100 ;#
b11111111111111111111111111111100 O#
b11 6
#400
1g"
1m"
1n"
1b"
1t"
1u"
1r
1H"
1N"
1O"
1C"
1U"
1V"
1h
1s
1(#
1.#
1/#
1##
15#
16#
1K
1n
1o
1p
1q
1X"
1["
1\"
1^"
1`"
1a"
1d"
1e"
1f"
1p"
1i"
1l"
1q"
1r"
1s"
1H#
1J
1d
1e
1f
1g
19"
1<"
1="
1?"
1A"
1B"
1E"
1F"
1G"
1Q"
1J"
1M"
1R"
1S"
1T"
1G#
1I
1[
1\
1]
1^
1w"
1z"
1{"
1}"
1!#
1"#
1%#
1&#
1'#
11#
1*#
1-#
12#
13#
14#
1F#
1S
1&"
1+"
13"
15"
0N#
1k
1l
1m
1a
1b
1c
1X
1Y
1Z
1P
1Q
1#
0$"
0"
1$
b11111111 _"
b11111111 @"
b11111111 ~"
1E#
0T
0~
0'"
0."
0M#
0K#
b11101000 !"
b11111111111111111111111111101111 <
b11111111111111111111111111101111 E
b11111111111111111111111111101111 :#
b11111111111111111111111111101111 =#
b11111111111111111111111111101111 ?#
b11111111111111111111111111101111 P#
b11111111111111111111111111101000 !
b11111111111111111111111111101000 =
b11111111111111111111111111101000 D
b11111111111111111111111111101000 B#
b11111111111111111111111111101000 D#
b11111111111111111111111111101000 I#
b11111111111111111111111111101000 F
b11111111111111111111111111101000 w
b11111111111111111111111111101000 9#
1(
b11111111111111111111111111101000 +
b10000 '
b10000 ;
b10000 >#
b11111111111111111111111111111000 %
b11111111111111111111111111111000 :
b11111111111111111111111111111000 >
b11111111111111111111111111111000 8#
b11111111111111111111111111111000 ;#
b11111111111111111111111111111000 O#
b100 6
#500
0r
0h
0s
0K
0J
0I
0g"
0m"
0n"
0b"
0t"
0u"
0H"
0N"
0O"
0C"
0U"
0V"
0(#
0.#
0/#
0##
05#
06#
0n
0o
0p
0q
0X"
0["
0\"
0^"
0`"
0a"
0d"
0e"
0f"
0p"
0i"
0l"
0q"
0r"
0s"
0H#
0d
0e
0f
0g
09"
0<"
0="
0?"
0A"
0B"
0E"
0F"
0G"
0Q"
0J"
0M"
0R"
0S"
0T"
0G#
0[
0\
0]
0^
0w"
0z"
0{"
0}"
0!#
0"#
0%#
0&#
0'#
01#
0*#
0-#
02#
03#
04#
0F#
12"
03"
14"
1N#
0k
0l
0m
0a
0b
0c
0X
0Y
0Z
0P
0Q
1R
0$
b0 _"
b0 @"
b0 ~"
0S
0&"
0+"
05"
1M#
b10000 !"
b11111 <
b11111 E
b11111 :#
b11111 =#
b11111 ?#
b11111 P#
b10000 !
b10000 =
b10000 D
b10000 B#
b10000 D#
b10000 I#
b10000 F
b10000 w
b10000 9#
0(
b10000 +
b11111111111111111111111111100000 '
b11111111111111111111111111100000 ;
b11111111111111111111111111100000 >#
b11111111111111111111111111110000 %
b11111111111111111111111111110000 :
b11111111111111111111111111110000 >
b11111111111111111111111111110000 8#
b11111111111111111111111111110000 ;#
b11111111111111111111111111110000 O#
b101 6
#600
1g"
1m"
1n"
1b"
1t"
1u"
1r
1H"
1N"
1O"
1C"
1U"
1V"
1h
1s
1(#
1.#
1/#
1##
15#
16#
1K
1n
1o
1p
1q
1X"
1["
1\"
1^"
1`"
1a"
1d"
1e"
1f"
1p"
1i"
1l"
1q"
1r"
1s"
1H#
1J
1d
1e
1f
1g
19"
1<"
1="
1?"
1A"
1B"
1E"
1F"
1G"
1Q"
1J"
1M"
1R"
1S"
1T"
1G#
1I
1[
1\
1]
1^
1w"
1z"
1{"
1}"
1!#
1"#
1%#
1&#
1'#
11#
1*#
1-#
12#
13#
14#
1F#
13"
1_
1i
1t
0N#
1k
1l
1m
1a
1b
1c
1X
1Y
1Z
1Q
1#
1H
0"
1$
b11111111 _"
b11111111 @"
b11111111 ~"
1E#
02"
04"
0M#
0K#
0R
b10100000 !"
b11111111111111111111111110111111 <
b11111111111111111111111110111111 E
b11111111111111111111111110111111 :#
b11111111111111111111111110111111 =#
b11111111111111111111111110111111 ?#
b11111111111111111111111110111111 P#
b11111111111111111111111110100000 !
b11111111111111111111111110100000 =
b11111111111111111111111110100000 D
b11111111111111111111111110100000 B#
b11111111111111111111111110100000 D#
b11111111111111111111111110100000 I#
b11111111111111111111111110100000 F
b11111111111111111111111110100000 w
b11111111111111111111111110100000 9#
1(
b11111111111111111111111110100000 +
b1000000 '
b1000000 ;
b1000000 >#
b11111111111111111111111111100000 %
b11111111111111111111111111100000 :
b11111111111111111111111111100000 >
b11111111111111111111111111100000 8#
b11111111111111111111111111100000 ;#
b11111111111111111111111111100000 O#
b110 6
#700
0r
0h
0s
0K
0J
0I
0g"
0m"
0n"
0b"
0t"
0u"
0H"
0N"
0O"
0C"
0U"
0V"
0(#
0.#
0/#
0##
05#
06#
0n
0o
0p
0q
0X"
0["
0\"
0^"
0`"
0a"
0d"
0e"
0f"
0p"
0i"
0l"
0q"
0r"
0s"
0H#
0d
0e
0f
0g
09"
0<"
0="
0?"
0A"
0B"
0E"
0F"
0G"
0Q"
0J"
0M"
0R"
0S"
0T"
0G#
0[
0\
0]
0^
0w"
0z"
0{"
0}"
0!#
0"#
0%#
0&#
0'#
01#
0*#
0-#
02#
03#
04#
0F#
1N#
0k
0l
0m
0a
0b
0c
0X
0Y
0Z
1P
0$
b0 _"
b0 @"
b0 ~"
03"
1M#
0Q
b1000000 !"
b1111111 <
b1111111 E
b1111111 :#
b1111111 =#
b1111111 ?#
b1111111 P#
b1000000 !
b1000000 =
b1000000 D
b1000000 B#
b1000000 D#
b1000000 I#
b1000000 F
b1000000 w
b1000000 9#
0(
b1000000 +
b11111111111111111111111110000000 '
b11111111111111111111111110000000 ;
b11111111111111111111111110000000 >#
b11111111111111111111111111000000 %
b11111111111111111111111111000000 :
b11111111111111111111111111000000 >
b11111111111111111111111111000000 8#
b11111111111111111111111111000000 ;#
b11111111111111111111111111000000 O#
b111 6
#800
1g"
1m"
1n"
1b"
1t"
1u"
1r
1H"
1N"
1O"
1C"
1U"
1V"
1h
1s
1.#
1##
15#
1K
1n
1o
1p
1q
1X"
1["
1\"
1^"
1`"
1a"
1d"
1e"
1f"
1p"
1i"
1l"
1q"
1r"
1s"
1H#
1J
1d
1e
1f
1g
19"
1<"
1="
1?"
1A"
1B"
1E"
1F"
1G"
1Q"
1J"
1M"
1R"
1S"
1T"
1G#
1I
1[
1\
1]
1z"
1}"
1!#
1%#
1&#
1'#
11#
1*#
1-#
12#
13#
14#
1F#
1_
1i
1t
0N#
1k
1l
1m
1a
1b
1c
1X
1Y
1Z
1#
1H
0"
1$
b11111111 _"
b11111111 @"
b11111110 ~"
1E#
0M#
0K#
0P
b10000000 !"
b11111111111111111111111011111111 <
b11111111111111111111111011111111 E
b11111111111111111111111011111111 :#
b11111111111111111111111011111111 =#
b11111111111111111111111011111111 ?#
b11111111111111111111111011111111 P#
b11111111111111111111111010000000 !
b11111111111111111111111010000000 =
b11111111111111111111111010000000 D
b11111111111111111111111010000000 B#
b11111111111111111111111010000000 D#
b11111111111111111111111010000000 I#
b11111111111111111111111010000000 F
b11111111111111111111111010000000 w
b11111111111111111111111010000000 9#
1(
b11111111111111111111111010000000 +
b100000000 '
b100000000 ;
b100000000 >#
b11111111111111111111111110000000 %
b11111111111111111111111110000000 :
b11111111111111111111111110000000 >
b11111111111111111111111110000000 8#
b11111111111111111111111110000000 ;#
b11111111111111111111111110000000 O#
b1000 6
#900
0r
0K
0J
0g"
0m"
0n"
0b"
0t"
0u"
0H"
0N"
0O"
0C"
0U"
0V"
1(#
0.#
1/#
0##
05#
16#
0n
0o
0p
0q
0X"
0["
0\"
0^"
0`"
0a"
0d"
0e"
0f"
0p"
0i"
0l"
0q"
0r"
0s"
0H#
0d
0e
0f
0g
09"
0<"
0="
0?"
0A"
0B"
0E"
0F"
0G"
0Q"
0J"
0M"
0R"
0S"
0T"
0G#
0[
0\
0]
1^
1w"
0z"
1{"
0}"
0!#
1"#
0%#
0&#
0'#
01#
0*#
0-#
02#
03#
04#
1N#
0k
0l
0m
0a
0b
0c
0X
0Y
0Z
0_
0i
0t
0$
b0 _"
b0 @"
b1 ~"
0E#
0H
1M#
b0 !"
b111111111 <
b111111111 E
b111111111 :#
b111111111 =#
b111111111 ?#
b111111111 P#
b100000000 !
b100000000 =
b100000000 D
b100000000 B#
b100000000 D#
b100000000 I#
b100000000 F
b100000000 w
b100000000 9#
0(
b100000000 +
b11111111111111111111111000000000 '
b11111111111111111111111000000000 ;
b11111111111111111111111000000000 >#
b11111111111111111111111100000000 %
b11111111111111111111111100000000 :
b11111111111111111111111100000000 >
b11111111111111111111111100000000 8#
b11111111111111111111111100000000 ;#
b11111111111111111111111100000000 O#
b1001 6
#1000
1g"
1m"
1n"
1b"
1t"
1u"
1r
1H"
1N"
1O"
1C"
1U"
1V"
1.#
15#
1K
1n
1o
1p
1q
1X"
1["
1\"
1^"
1`"
1a"
1d"
1e"
1f"
1p"
1i"
1l"
1q"
1r"
1s"
1H#
1J
1d
1e
1f
1g
19"
1<"
1="
1?"
1A"
1B"
1E"
1F"
1G"
1Q"
1J"
1M"
1R"
1S"
1T"
1G#
1[
1]
1z"
1!#
1%#
1'#
11#
1*#
12#
13#
14#
0N#
1k
1l
1m
1a
1b
1c
1X
1Y
1Z
1#
0(#
0/#
06#
0"
1$
b11111111 _"
b11111111 @"
1F#
0^
0w"
0{"
0"#
0M#
0K#
b11111010 ~"
b11111111111111111111101111111111 <
b11111111111111111111101111111111 E
b11111111111111111111101111111111 :#
b11111111111111111111101111111111 =#
b11111111111111111111101111111111 ?#
b11111111111111111111101111111111 P#
b11111111111111111111101000000000 !
b11111111111111111111101000000000 =
b11111111111111111111101000000000 D
b11111111111111111111101000000000 B#
b11111111111111111111101000000000 D#
b11111111111111111111101000000000 I#
b11111111111111111111101000000000 F
b11111111111111111111101000000000 w
b11111111111111111111101000000000 9#
1(
b11111111111111111111101000000000 +
b10000000000 '
b10000000000 ;
b10000000000 >#
b11111111111111111111111000000000 %
b11111111111111111111111000000000 :
b11111111111111111111111000000000 >
b11111111111111111111111000000000 8#
b11111111111111111111111000000000 ;#
b11111111111111111111111000000000 O#
b1010 6
#1100
0r
0K
0J
0g"
0m"
0n"
0b"
0t"
0u"
0H"
0N"
0O"
0C"
0U"
0V"
1##
0n
0o
0p
0q
0X"
0["
0\"
0^"
0`"
0a"
0d"
0e"
0f"
0p"
0i"
0l"
0q"
0r"
0s"
0H#
0d
0e
0f
0g
09"
0<"
0="
0?"
0A"
0B"
0E"
0F"
0G"
0Q"
0J"
0M"
0R"
0S"
0T"
0G#
0[
1\
1}"
0%#
1&#
01#
0*#
1-#
02#
03#
04#
1N#
0k
0l
0m
0a
0b
0c
0X
0Y
0Z
0.#
05#
0$
b0 _"
b0 @"
0]
0z"
0!#
0'#
1M#
b100 ~"
b11111111111 <
b11111111111 E
b11111111111 :#
b11111111111 =#
b11111111111 ?#
b11111111111 P#
b10000000000 !
b10000000000 =
b10000000000 D
b10000000000 B#
b10000000000 D#
b10000000000 I#
b10000000000 F
b10000000000 w
b10000000000 9#
0(
b10000000000 +
b11111111111111111111100000000000 '
b11111111111111111111100000000000 ;
b11111111111111111111100000000000 >#
b11111111111111111111110000000000 %
b11111111111111111111110000000000 :
b11111111111111111111110000000000 >
b11111111111111111111110000000000 8#
b11111111111111111111110000000000 ;#
b11111111111111111111110000000000 O#
b1011 6
#1200
1g"
1m"
1n"
1b"
1t"
1u"
1r
1H"
1N"
1O"
1C"
1U"
1V"
1K
1n
1o
1p
1q
1X"
1["
1\"
1^"
1`"
1a"
1d"
1e"
1f"
1p"
1i"
1l"
1q"
1r"
1s"
1H#
1J
1d
1e
1f
1g
19"
1<"
1="
1?"
1A"
1B"
1E"
1F"
1G"
1Q"
1J"
1M"
1R"
1S"
1T"
1G#
1[
1%#
1*#
12#
14#
0N#
1k
1l
1m
1a
1b
1c
1X
1Y
1#
0##
0"
1$
b11111111 _"
b11111111 @"
1F#
0\
0}"
0&#
0-#
0M#
0K#
b11101000 ~"
b11111111111111111110111111111111 <
b11111111111111111110111111111111 E
b11111111111111111110111111111111 :#
b11111111111111111110111111111111 =#
b11111111111111111110111111111111 ?#
b11111111111111111110111111111111 P#
b11111111111111111110100000000000 !
b11111111111111111110100000000000 =
b11111111111111111110100000000000 D
b11111111111111111110100000000000 B#
b11111111111111111110100000000000 D#
b11111111111111111110100000000000 I#
b11111111111111111110100000000000 F
b11111111111111111110100000000000 w
b11111111111111111110100000000000 9#
1(
b11111111111111111110100000000000 +
b1000000000000 '
b1000000000000 ;
b1000000000000 >#
b11111111111111111111100000000000 %
b11111111111111111111100000000000 :
b11111111111111111111100000000000 >
b11111111111111111111100000000000 8#
b11111111111111111111100000000000 ;#
b11111111111111111111100000000000 O#
b1100 6
