ECE 350/Stuffs/Checkpoint3_MultDiv/old multiplier stuff/wallaceTree_tb.vcd
$date
	Fri Feb  9 19:27:37 2024
$end
$version
	Icarus Verilog
$end
$timescale
	1ps
$end
$scope module wallaceTree_tb $end
$var wire 8 ! data_result [7:0] $end
$var reg 4 " data_operandA [3:0] $end
$var reg 4 # data_operandB [3:0] $end
$scope module uut $end
$var wire 4 $ data_operandA [3:0] $end
$var wire 4 % data_operandB [3:0] $end
$var wire 1 & w_0_0 $end
$var wire 1 ' w_0_1 $end
$var wire 1 ( w_0_2 $end
$var wire 1 ) w_0_3 $end
$var wire 1 * w_0_4 $end
$var wire 1 + w_3_7 $end
$var wire 1 , w_3_6 $end
$var wire 1 - w_3_5 $end
$var wire 1 . w_3_4 $end
$var wire 1 / w_3_3 $end
$var wire 1 0 w_2_6 $end
$var wire 1 1 w_2_5 $end
$var wire 1 2 w_2_4 $end
$var wire 1 3 w_2_3 $end
$var wire 1 4 w_2_2 $end
$var wire 1 5 w_1_5 $end
$var wire 1 6 w_1_4 $end
$var wire 1 7 w_1_3 $end
$var wire 1 8 w_1_2 $end
$var wire 1 9 w_1_1 $end
$var wire 8 : data_result [7:0] $end
$var wire 1 ; c_3_5 $end
$var wire 1 < c_3_4 $end
$var wire 1 = c_3_3 $end
$var wire 1 > c_2_4 $end
$var wire 1 ? c_2_3 $end
$var wire 1 @ c_2_2 $end
$var wire 1 A c_1_3 $end
$var wire 1 B c_1_2 $end
$var wire 1 C c_1_1 $end
$scope module add_w_1_1 $end
$var wire 1 ' A $end
$var wire 1 D B $end
$var wire 1 E Cin $end
$var wire 1 C Cout $end
$var wire 1 9 S $end
$var wire 1 F w1 $end
$var wire 1 G w2 $end
$var wire 1 H w3 $end
$upscope $end
$scope module add_w_1_2 $end
$var wire 1 ( A $end
$var wire 1 I B $end
$var wire 1 C Cin $end
$var wire 1 B Cout $end
$var wire 1 8 S $end
$var wire 1 J w1 $end
$var wire 1 K w2 $end
$var wire 1 L w3 $end
$upscope $end
$scope module add_w_1_3 $end
$var wire 1 ) A $end
$var wire 1 M B $end
$var wire 1 B Cin $end
$var wire 1 A Cout $end
$var wire 1 7 S $end
$var wire 1 N w1 $end
$var wire 1 O w2 $end
$var wire 1 P w3 $end
$upscope $end
$scope module add_w_1_4 $end
$var wire 1 * A $end
$var wire 1 Q B $end
$var wire 1 A Cin $end
$var wire 1 5 Cout $end
$var wire 1 6 S $end
$var wire 1 R w1 $end
$var wire 1 S w2 $end
$var wire 1 T w3 $end
$upscope $end
$scope module add_w_2_2 $end
$var wire 1 8 A $end
$var wire 1 U B $end
$var wire 1 V Cin $end
$var wire 1 @ Cout $end
$var wire 1 4 S $end
$var wire 1 W w1 $end
$var wire 1 X w2 $end
$var wire 1 Y w3 $end
$upscope $end
$scope module add_w_2_3 $end
$var wire 1 7 A $end
$var wire 1 Z B $end
$var wire 1 @ Cin $end
$var wire 1 ? Cout $end
$var wire 1 3 S $end
$var wire 1 [ w1 $end
$var wire 1 \ w2 $end
$var wire 1 ] w3 $end
$upscope $end
$scope module add_w_2_4 $end
$var wire 1 6 A $end
$var wire 1 ^ B $end
$var wire 1 ? Cin $end
$var wire 1 > Cout $end
$var wire 1 2 S $end
$var wire 1 _ w1 $end
$var wire 1 ` w2 $end
$var wire 1 a w3 $end
$upscope $end
$scope module add_w_2_5 $end
$var wire 1 5 A $end
$var wire 1 b B $end
$var wire 1 > Cin $end
$var wire 1 0 Cout $end
$var wire 1 1 S $end
$var wire 1 c w1 $end
$var wire 1 d w2 $end
$var wire 1 e w3 $end
$upscope $end
$scope module add_w_3_3 $end
$var wire 1 3 A $end
$var wire 1 f B $end
$var wire 1 g Cin $end
$var wire 1 = Cout $end
$var wire 1 / S $end
$var wire 1 h w1 $end
$var wire 1 i w2 $end
$var wire 1 j w3 $end
$upscope $end
$scope module add_w_3_4 $end
$var wire 1 2 A $end
$var wire 1 k B $end
$var wire 1 = Cin $end
$var wire 1 < Cout $end
$var wire 1 . S $end
$var wire 1 l w1 $end
$var wire 1 m w2 $end
$var wire 1 n w3 $end
$upscope $end
$scope module add_w_3_5 $end
$var wire 1 1 A $end
$var wire 1 o B $end
$var wire 1 < Cin $end
$var wire 1 ; Cout $end
$var wire 1 - S $end
$var wire 1 p w1 $end
$var wire 1 q w2 $end
$var wire 1 r w3 $end
$upscope $end
$scope module add_w_3_6 $end
$var wire 1 0 A $end
$var wire 1 s B $end
$var wire 1 ; Cin $end
$var wire 1 + Cout $end
$var wire 1 , S $end
$var wire 1 t w1 $end
$var wire 1 u w2 $end
$var wire 1 v w3 $end
$upscope $end
$upscope $end
$upscope $end
$enddefinitions $end
$comment Show the parameter values. $end
$dumpall
$end
#0
$dumpvars
0v
0u
0t
0s
0r
0q
0p
0o
0n
0m
0l
0k
0j
0i
0h
0g
0f
0e
0d
0c
0b
0a
0`
0_
0^
0]
0\
0[
0Z
0Y
0X
0W
0V
0U
0T
0S
0R
0Q
0P
0O
0N
0M
0L
0K
0J
0I
0H
0G
0F
0E
0D
0C
0B
0A
0@
0?
0>
0=
0<
0;
b0 :
09
08
07
06
05
04
03
02
01
00
0/
0.
0-
0,
0+
0*
0)
0(
0'
0&
b0 %
b0 $
b0 #
b0 "
b0 !
$end
#10000
b1 #
b1 %
#20000
b10 #
b10 %
#30000
b11 #
b11 %
#40000
b100 #
b100 %
#50000
b101 #
b101 %
#60000
b110 #
b110 %
#70000
b111 #
b111 %
#80000
b1000 #
b1000 %
#90000
b1001 #
b1001 %
#100000
b1010 #
b1010 %
#110000
b1011 #
b1011 %
#120000
b1100 #
b1100 %
#130000
b1101 #
b1101 %
#140000
b1110 #
b1110 %
#150000
b1111 #
b1111 %
#160000
b1 "
b1 $
b0 #
b0 %
#170000
b1 !
b1 :
1&
b1 #
b1 %
#180000
19
b10 !
b10 :
0&
1'
b10 #
b10 %
#190000
b11 !
b11 :
1&
b11 #
b11 %
#200000
14
09
18
b100 !
b100 :
0&
0'
1(
b100 #
b100 %
#210000
b101 !
b101 :
1&
b101 #
b101 %
#220000
19
b110 !
b110 :
0&
1'
b110 #
b110 %
#230000
b111 !
b111 :
1&
b111 #
b111 %
#240000
1/
04
13
09
08
17
b1000 !
b1000 :
0&
0'
0(
1)
b1000 #
b1000 %
#250000
b1001 !
b1001 :
1&
b1001 #
b1001 %
#260000
19
b1010 !
b1010 :
0&
1'
b1010 #
b1010 %
#270000
b1011 !
b1011 :
1&
b1011 #
b1011 %
#280000
14
09
18
b1100 !
b1100 :
0&
0'
1(
b1100 #
b1100 %
#290000
b1101 !
b1101 :
1&
b1101 #
b1101 %
#300000
19
b1110 !
b1110 :
0&
1'
b1110 #
b1110 %
#310000
b1111 !
b1111 :
1&
b1111 #
b1111 %
#320000
0/
04
03
09
08
07
b0 !
b0 :
0&
0'
0(
0)
b10 "
b10 $
b0 #
b0 %
#330000
b10 !
b10 :
19
1D
b1 #
b1 %
#340000
14
b100 !
b100 :
09
18
0D
1I
b10 #
b10 %
#350000
b110 !
b110 :
19
1D
b11 #
b11 %
#360000
1/
04
13
b1000 !
b1000 :
09
08
17
0D
0I
1M
b100 #
b100 %
#370000
b1010 !
b1010 :
19
1D
b101 #
b101 %
#380000
14
b1100 !
b1100 :
09
18
0D
1I
b110 #
b110 %
#390000
b1110 !
b1110 :
19
1D
b111 #
b111 %
#400000
0/
1.
04
03
12
b10000 !
b10000 :
09
08
07
16
0D
0I
0M
1Q
b1000 #
b1000 %
#410000
b10010 !
b10010 :
19
1D
b1001 #
b1001 %
#420000
14
b10100 !
b10100 :
09
18
0D
1I
b1010 #
b1010 %
#430000
b10110 !
b10110 :
19
1D
b1011 #
b1011 %
#440000
1/
04
13
b11000 !
b11000 :
09
08
17
0D
0I
1M
b1100 #
b1100 %
#450000
b11010 !
b11010 :
19
1D
b1101 #
b1101 %
#460000
14
b11100 !
b11100 :
09
18
0D
1I
b1110 #
b1110 %
#470000
b11110 !
b11110 :
19
1D
b1111 #
b1111 %
#480000
0/
0.
04
03
02
b0 !
b0 :
09
08
07
06
0D
0I
0M
0Q
b11 "
b11 $
b0 #
b0 %
#490000
19
b11 !
b11 :
1&
1D
b1 #
b1 %
#500000
14
18
b110 !
b110 :
0&
1'
0D
1I
b10 #
b10 %
#510000
1/
13
17
04
1B
08
1L
1C
09
1F
b1001 !
b1001 :
1&
1D
b11 #
b11 %
#520000
0.
14
0B
02
18
1/
06
0C
13
0A
0K
0F
0L
17
0P
b1100 !
b1100 :
0&
0'
1(
0D
0I
1M
b100 #
b100 %
#530000
19
b1111 !
b1111 :
1&
1D
b101 #
b101 %
#540000
1.
12
0/
16
03
1A
07
1P
04
1B
08
1J
b10010 !
b10010 :
0&
1'
0D
1I
b110 #
b110 %
#550000
14
18
1K
1L
1C
09
1F
b10101 !
b10101 :
1&
1D
b111 #
b111 %
#560000
1/
04
13
0A
0-
08
17
1.
01
0C
0B
12
05
0K
0O
0F
0J
0L
0P
16
0T
b11000 !
b11000 :
0&
0'
0(
1)
0D
0I
0M
1Q
b1000 #
b1000 %
#570000
19
b11011 !
b11011 :
1&
1D
b1001 #
b1001 %
#580000
14
18
b11110 !
b11110 :
0&
1'
0D
1I
b1010 #
b1010 %
#590000
1-
0.
11
02
15
0/
06
1T
03
1A
07
1O
04
1B
08
1L
1C
09
1F
b100001 !
b100001 :
1&
1D
b1011 #
b1011 %
#600000
0O
14
0B
18
0/
0C
03
0K
0F
0L
07
1N
0P
b100100 !
b100100 :
0&
0'
1(
0D
0I
1M
b1100 #
b1100 %
#610000
19
b100111 !
b100111 :
1&
1D
b1101 #
b1101 %
#620000
1/
13
17
1O
1P
04
1B
08
1J
b101010 !
b101010 :
0&
1'
0D
1I
b1110 #
b1110 %
#630000
14
18
1K
1L
1C
09
1F
b101101 !
b101101 :
1&
1D
b1111 #
b1111 %
#640000
0/
04
03
0-
08
07
0.
01
0C
0B
0A
02
05
0K
0O
0F
0J
0L
0N
0P
06
0T
b0 !
b0 :
0&
0'
0(
0)
0D
0I
0M
0Q
b100 "
b100 $
b0 #
b0 %
#650000
b100 !
b100 :
14
1U
b1 #
b1 %
#660000
1/
b1000 !
b1000 :
04
13
0U
1Z
b10 #
b10 %
#670000
b1100 !
b1100 :
14
1U
b11 #
b11 %
#680000
0/
1.
b10000 !
b10000 :
04
03
12
0U
0Z
1^
b100 #
b100 %
#690000
b10100 !
b10100 :
14
1U
b101 #
b101 %
#700000
1/
b11000 !
b11000 :
04
13
0U
1Z
b110 #
b110 %
#710000
b11100 !
b11100 :
14
1U
b111 #
b111 %
#720000
0/
0.
1-
b100000 !
b100000 :
04
03
02
11
0U
0Z
0^
1b
b1000 #
b1000 %
#730000
b100100 !
b100100 :
14
1U
b1001 #
b1001 %
#740000
1/
b101000 !
b101000 :
04
13
0U
1Z
b1010 #
b1010 %
#750000
b101100 !
b101100 :
14
1U
b1011 #
b1011 %
#760000
0/
1.
b110000 !
b110000 :
04
03
12
0U
0Z
1^
b1100 #
b1100 %
#770000
b110100 !
b110100 :
14
1U
b1101 #
b1101 %
#780000
1/
b111000 !
b111000 :
04
13
0U
1Z
b1110 #
b1110 %
#790000
b111100 !
b111100 :
14
1U
b1111 #
b1111 %
#800000
0/
0.
0-
b0 !
b0 :
04
03
02
01
0U
0Z
0^
0b
b101 "
b101 $
b0 #
b0 %
#810000
14
b101 !
b101 :
1&
1U
b1 #
b1 %
#820000
1/
19
04
13
b1010 !
b1010 :
0&
1'
0U
1Z
b10 #
b10 %
#830000
14
b1111 !
b1111 :
1&
1U
b11 #
b11 %
#840000
0/
1.
09
18
14
03
12
b10100 !
b10100 :
0&
0'
1(
0U
0Z
1^
b100 #
b100 %
#850000
1/
13
1@
04
1W
b11001 !
b11001 :
1&
1U
b101 #
b101 %
#860000
0-
01
1.
0>
12
0a
0@
1/
0?
19
14
0W
13
0]
b11110 !
b11110 :
0&
1'
0U
1Z
b110 #
b110 %
#870000
1-
11
0.
1>
02
1a
0/
1?
03
1]
1@
04
1W
b100011 !
b100011 :
1&
1U
b111 #
b111 %
#880000
0,
0@
1/
0?
0.
0>
1-
00
09
08
17
04
0W
13
0]
02
0a
11
0e
b101000 !
b101000 :
0&
0'
0(
1)
0U
0Z
0^
1b
b1000 #
b1000 %
#890000
14
b101101 !
b101101 :
1&
1U
b1001 #
b1001 %
#900000
1.
12
0/
1?
19
04
03
1[
b110010 !
b110010 :
0&
1'
0U
1Z
b1010 #
b1010 %
#910000
14
b110111 !
b110111 :
1&
1U
b1011 #
b1011 %
#920000
0,
1-
00
11
0e
1/
0?
1.
0>
09
18
14
13
0[
12
0a
b111100 !
b111100 :
0&
0'
1(
0U
0Z
1^
b1100 #
b1100 %
#930000
1,
0-
10
01
1e
0.
1>
02
1a
0/
1?
03
1\
1@
04
1W
b1000001 !
b1000001 :
1&
1U
b1101 #
b1101 %
#940000
0\
0@
0/
19
14
0W
03
1[
0]
b1000110 !
b1000110 :
0&
1'
0U
1Z
b1110 #
b1110 %
#950000
1/
13
1\
1]
1@
04
1W
b1001011 !
b1001011 :
1&
1U
b1111 #
b1111 %
#960000
0?
0,
0\
0@
0/
0.
0>
0-
00
09
08
07
04
0W
03
0[
0]
02
0a
01
0e
b0 !
b0 :
0&
0'
0(
0)
0U
0Z
0^
0b
b110 "
b110 $
b0 #
b0 %
#970000
19
b110 !
b110 :
14
1D
1U
b1 #
b1 %
#980000
1/
09
18
b1100 !
b1100 :
14
13
0D
1I
0U
1Z
b10 #
b10 %
#990000
1.
12
0/
1?
03
1]
1@
19
b10010 !
b10010 :
04
1W
1D
1U
b11 #
b11 %
#1000000
0-
01
0@
1/
0?
1.
0>
09
08
17
b11000 !
b11000 :
04
0W
13
0]
12
0a
0D
0I
1M
0U
0Z
1^
b100 #
b100 %
#1010000
19
b11110 !
b11110 :
14
1D
1U
b101 #
b101 %
#1020000
1-
11
0.
1>
02
1a
0/
1?
09
18
b100100 !
b100100 :
14
03
1[
0D
1I
0U
1Z
b110 #
b110 %
#1030000
1/
13
1\
1]
1@
19
b101010 !
b101010 :
04
1W
1D
1U
b111 #
b111 %
#1040000
0?
0,
0\
0`
0@
0/
1.
0>
1-
00
09
08
07
16
b110000 !
b110000 :
04
0W
03
0[
0]
12
0a
11
0e
0D
0I
0M
1Q
0U
0Z
0^
1b
b1000 #
b1000 %
#1050000
19
b110110 !
b110110 :
14
1D
1U
b1001 #
b1001 %
#1060000
1/
09
18
b111100 !
b111100 :
14
13
0D
1I
0U
1Z
b1010 #
b1010 %
#1070000
1,
0-
10
01
1e
0.
1>
02
1`
0/
1?
03
1]
1@
19
b1000010 !
b1000010 :
04
1W
1D
1U
b1011 #
b1011 %
#1080000
0`
0@
1/
0?
0.
09
08
17
b1001000 !
b1001000 :
04
0W
13
0]
02
1_
0a
0D
0I
1M
0U
0Z
1^
b1100 #
b1100 %
#1090000
19
b1001110 !
b1001110 :
14
1D
1U
b1101 #
b1101 %
#1100000
1.
12
1`
1a
0/
1?
09
18
b1010100 !
b1010100 :
14
03
1[
0D
1I
0U
1Z
b1110 #
b1110 %
#1110000
1/
13
1\
1]
1@
19
b1011010 !
b1011010 :
04
1W
1D
1U
b1111 #
b1111 %
#1120000
0?
0>
0,
0\
0`
0@
0/
0.
0-
00
09
08
07
06
b0 !
b0 :
04
0W
03
0[
0]
02
0_
0a
01
0e
0D
0I
0M
0Q
0U
0Z
0^
0b
b111 "
b111 $
b0 #
b0 %
#1130000
19
14
b111 !
b111 :
1&
1D
1U
b1 #
b1 %
#1140000
1/
18
14
13
b1110 !
b1110 :
0&
1'
0D
1I
0U
1Z
b10 #
b10 %
#1150000
1[
1.
17
12
1B
0/
1?
08
1L
03
0]
1C
0@
09
1F
14
0W
b10101 !
b10101 :
1&
1D
1U
b11 #
b11 %
#1160000
0B
0_
0-
18
06
01
0C
0A
1/
0?
1.
0>
0K
0F
0L
17
0P
14
13
0[
12
0a
b11100 !
b11100 :
0&
0'
1(
0D
0I
1M
0U
0Z
1^
b100 #
b100 %
#1170000
1-
11
0.
1>
02
1a
0/
1?
03
1\
1@
19
04
1W
b100011 !
b100011 :
1&
1D
1U
b101 #
b101 %
#1180000
0a
1_
0?
16
1A
07
1P
0\
1B
0@
1/
08
1J
04
0W
13
0[
0]
b101010 !
b101010 :
0&
1'
0D
1I
0U
1Z
b110 #
b110 %
#1190000
1.
12
1`
1a
0/
1?
03
1]
1@
1W
18
1K
1L
1C
09
1F
04
b110001 !
b110001 :
1&
1D
1U
b111 #
b111 %
#1200000
0A
08
17
0>
0c
0d
0,
0C
0B
0`
05
0@
1/
0?
1.
1-
00
0K
0O
0F
0J
0L
0P
16
0T
04
0W
13
0]
12
0_
0a
11
0e
b111000 !
b111000 :
0&
0'
0(
1)
0D
0I
0M
1Q
0U
0Z
0^
1b
b1000 #
b1000 %
#1210000
19
14
b111111 !
b111111 :
1&
1D
1U
b1001 #
b1001 %
#1220000
1,
0-
10
01
1e
0.
1>
02
1`
0/
1?
18
14
03
1[
b1000110 !
b1000110 :
0&
1'
0D
1I
0U
1Z
b1010 #
b1010 %
#1230000
0e
0-
0>
01
1c
0d
0`
15
0?
06
1T
0[
1A
07
1O
1B
1/
08
1L
13
0\
0]
1C
0@
09
1F
14
0W
b1001101 !
b1001101 :
1&
1D
1U
b1011 #
b1011 %
#1240000
0O
0B
18
0C
0/
1.
0K
0F
0L
07
1N
0P
14
03
12
b1010100 !
b1010100 :
0&
0'
1(
0D
0I
1M
0U
0Z
1^
b1100 #
b1100 %
#1250000
1/
13
1@
19
04
1W
b1011011 !
b1011011 :
1&
1D
1U
b1101 #
b1101 %
#1260000
1-
11
1d
1e
1[
0.
1>
17
1O
1P
02
1a
1B
0@
0/
1?
08
1J
04
0W
03
0]
b1100010 !
b1100010 :
0&
1'
0D
1I
0U
1Z
b1110 #
b1110 %
#1270000
1/
13
1\
1]
1@
1W
18
1K
1L
1C
09
1F
04
b1101001 !
b1101001 :
1&
1D
1U
b1111 #
b1111 %
#1280000
0,
0?
00
08
07
0\
0d
0C
0B
0A
0`
05
0@
0/
0.
0>
0-
0K
0O
0F
0J
0L
0N
0P
06
0T
04
0W
03
0[
0]
02
0a
01
0c
0e
b0 !
b0 :
0&
0'
0(
0)
0D
0I
0M
0Q
0U
0Z
0^
0b
b1000 "
b1000 $
b0 #
b0 %
#1290000
b1000 !
b1000 :
1/
1f
b1 #
b1 %
#1300000
0/
b10000 !
b10000 :
1.
0f
1k
b10 #
b10 %
#1310000
b11000 !
b11000 :
1/
1f
b11 #
b11 %
#1320000
0/
0.
b100000 !
b100000 :
1-
0f
0k
1o
b100 #
b100 %
#1330000
b101000 !
b101000 :
1/
1f
b101 #
b101 %
#1340000
0/
b110000 !
b110000 :
1.
0f
1k
b110 #
b110 %
#1350000
b111000 !
b111000 :
1/
1f
b111 #
b111 %
#1360000
0/
0.
0-
b1000000 !
b1000000 :
1,
0f
0k
0o
1s
b1000 #
b1000 %
#1370000
b1001000 !
b1001000 :
1/
1f
b1001 #
b1001 %
#1380000
0/
b1010000 !
b1010000 :
1.
0f
1k
b1010 #
b1010 %
#1390000
b1011000 !
b1011000 :
1/
1f
b1011 #
b1011 %
#1400000
0/
0.
b1100000 !
b1100000 :
1-
0f
0k
1o
b1100 #
b1100 %
#1410000
b1101000 !
b1101000 :
1/
1f
b1101 #
b1101 %
#1420000
0/
b1110000 !
b1110000 :
1.
0f
1k
b1110 #
b1110 %
#1430000
b1111000 !
b1111000 :
1/
1f
b1111 #
b1111 %
#1440000
0/
0.
0-
b0 !
b0 :
0,
0f
0k
0o
0s
b1001 "
b1001 $
b0 #
b0 %
#1450000
1/
b1001 !
b1001 :
1&
1f
b1 #
b1 %
#1460000
19
0/
1.
b10010 !
b10010 :
0&
1'
0f
1k
b10 #
b10 %
#1470000
1/
b11011 !
b11011 :
1&
1f
b11 #
b11 %
#1480000
14
09
18
0/
0.
1-
b100100 !
b100100 :
0&
0'
1(
0f
0k
1o
b100 #
b100 %
#1490000
1/
b101101 !
b101101 :
1&
1f
b101 #
b101 %
#1500000
19
0/
1.
b110110 !
b110110 :
0&
1'
0f
1k
b110 #
b110 %
#1510000
1/
b111111 !
b111111 :
1&
1f
b111 #
b111 %
#1520000
04
13
09
08
17
1/
0.
0-
1,
b1001000 !
b1001000 :
0&
0'
0(
1)
0f
0k
0o
1s
b1000 #
b1000 %
#1530000
1.
1=
0/
1h
b1010001 !
b1010001 :
1&
1f
b1001 #
b1001 %
#1540000
0-
0=
0<
19
1/
0h
1.
0n
b1011010 !
b1011010 :
0&
1'
0f
1k
b1010 #
b1010 %
#1550000
1-
1<
0.
1n
1=
0/
1h
b1100011 !
b1100011 :
1&
1f
b1011 #
b1011 %
#1560000
0+
1,
0v
14
0=
0<
0;
09
18
1/
0h
0.
0n
1-
0r
b1101100 !
b1101100 :
0&
0'
1(
0f
0k
1o
b1100 #
b1100 %
#1570000
1.
1=
0/
1h
b1110101 !
b1110101 :
1&
1f
b1101 #
b1101 %
#1580000
0+
1,
0v
0;
1-
0r
0=
0<
19
1/
0h
1.
0n
b1111110 !
b1111110 :
0&
1'
0f
1k
b1110 #
b1110 %
#1590000
1+
0,
1v
1;
0-
1r
1<
0.
1n
1=
0/
1h
b10000111 !
b10000111 :
1&
1f
b1111 #
b1111 %
#1600000
04
03
0=
0<
0;
0+
09
08
07
0/
0h
0.
0n
0-
0r
0,
0v
b0 !
b0 :
0&
0'
0(
0)
0f
0k
0o
0s
b1010 "
b1010 $
b0 #
b0 %
#1610000
19
b1010 !
b1010 :
1/
1D
1f
b1 #
b1 %
#1620000
14
09
18
0/
b10100 !
b10100 :
1.
0D
1I
0f
1k
b10 #
b10 %
#1630000
19
b11110 !
b11110 :
1/
1D
1f
b11 #
b11 %
#1640000
04
13
09
08
17
1/
0.
b101000 !
b101000 :
1-
0D
0I
1M
0f
0k
1o
b100 #
b100 %
#1650000
1.
1=
19
b110010 !
b110010 :
0/
1h
1D
1f
b101 #
b101 %
#1660000
0,
0;
1-
0r
14
0=
0<
09
18
1/
0h
b111100 !
b111100 :
1.
0n
0D
1I
0f
1k
b110 #
b110 %
#1670000
1,
1;
0-
1r
1<
0.
1n
1=
19
b1000110 !
b1000110 :
0/
1h
1D
1f
b111 #
b111 %
#1680000
04
03
12
0=
0<
0;
0+
09
08
07
16
0/
0h
1.
0n
0-
0r
b1010000 !
b1010000 :
1,
0v
0D
0I
0M
1Q
0f
0k
0o
1s
b1000 #
b1000 %
#1690000
19
b1011010 !
b1011010 :
1/
1D
1f
b1001 #
b1001 %
#1700000
1-
14
1<
09
18
0/
b1100100 !
b1100100 :
0.
1l
0D
1I
0f
1k
b1010 #
b1010 %
#1710000
19
b1101110 !
b1101110 :
1/
1D
1f
b1011 #
b1011 %
#1720000
0+
1,
0v
04
13
0<
0;
09
08
17
1/
1.
0l
b1111000 !
b1111000 :
1-
0r
0D
0I
1M
0f
0k
1o
b1100 #
b1100 %
#1730000
1+
0,
1v
1;
0-
1r
1<
0.
1m
1=
19
b10000010 !
b10000010 :
0/
1h
1D
1f
b1101 #
b1101 %
#1740000
0m
14
0=
09
18
1/
0h
b10001100 !
b10001100 :
0.
1l
0n
0D
1I
0f
1k
b1110 #
b1110 %
#1750000
1.
1m
1n
1=
19
b10010110 !
b10010110 :
0/
1h
1D
1f
b1111 #
b1111 %
#1760000
0<
0m
04
03
02
0=
0;
0+
09
08
07
06
0/
0h
0.
0l
0n
0-
0r
b0 !
b0 :
0,
0v
0D
0I
0M
0Q
0f
0k
0o
0s
b1011 "
b1011 $
b0 #
b0 %
#1770000
19
1/
b1011 !
b1011 :
1&
1D
1f
b1 #
b1 %
#1780000
14
18
0/
1.
b10110 !
b10110 :
0&
1'
0D
1I
0f
1k
b10 #
b10 %
#1790000
1-
1<
0.
1n
1=
1h
13
17
04
1B
08
1L
1C
09
1F
0/
b100001 !
b100001 :
1&
1D
1f
b11 #
b11 %
#1800000
14
0B
02
18
06
0,
0C
13
0A
0=
0<
0;
0K
0F
0L
17
0P
1/
0h
0.
0n
1-
0r
b101100 !
b101100 :
0&
0'
1(
0D
0I
1M
0f
0k
1o
b100 #
b100 %
#1810000
1.
1=
19
0/
1h
b110111 !
b110111 :
1&
1D
1f
b101 #
b101 %
#1820000
1l
12
16
1,
03
1A
1;
07
1P
0-
1r
04
1B
0=
1<
08
1J
0/
0h
0.
0n
b1000010 !
b1000010 :
0&
1'
0D
1I
0f
1k
b110 #
b110 %
#1830000
14
18
1K
1L
1C
09
1F
1/
b1001101 !
b1001101 :
1&
1D
1f
b111 #
b111 %
#1840000
04
13
0A
08
17
01
0C
0B
12
05
0<
0;
0+
0K
0O
0F
0J
0L
0P
16
0T
1/
1.
0l
0-
0r
1,
0v
b1011000 !
b1011000 :
0&
0'
0(
1)
0D
0I
0M
1Q
0f
0k
0o
1s
b1000 #
b1000 %
#1850000
1-
1<
0.
1m
1=
19
0/
1h
b1100011 !
b1100011 :
1&
1D
1f
b1001 #
b1001 %
#1860000
0m
14
0=
18
1/
0h
0.
1l
0n
b1101110 !
b1101110 :
0&
1'
0D
1I
0f
1k
b1010 #
b1010 %
#1870000
0+
1,
0v
0;
0<
1-
0q
0l
11
02
15
06
1T
03
1A
07
1O
04
1B
08
1L
1.
0m
0n
1C
0=
09
1F
1/
0h
b1111001 !
b1111001 :
1&
1D
1f
b1011 #
b1011 %
#1880000
0O
14
0B
1+
18
0,
1v
0C
03
1;
0K
0F
0L
07
1N
0P
0/
0.
0-
1p
b10000100 !
b10000100 :
0&
0'
1(
0D
0I
1M
0f
0k
1o
b1100 #
b1100 %
#1890000
19
1/
b10001111 !
b10001111 :
1&
1D
1f
b1101 #
b1101 %
#1900000
13
17
1O
1P
04
1B
08
1J
1/
1.
b10011010 !
b10011010 :
0&
1'
0D
1I
0f
1k
b1110 #
b1110 %
#1910000
1-
1q
1r
14
1<
18
1K
1L
0.
1n
1C
1=
09
1F
0/
1h
b10100101 !
b10100101 :
1&
1D
1f
b1111 #
b1111 %
#1920000
04
03
0;
08
07
01
0q
0C
0B
0A
02
05
0=
0<
0+
0K
0O
0F
0J
0L
0N
0P
06
0T
0/
0h
0.
0n
0-
0p
0r
0,
0v
b0 !
b0 :
0&
0'
0(
0)
0D
0I
0M
0Q
0f
0k
0o
0s
b1100 "
b1100 $
b0 #
b0 %
#1930000
14
b1100 !
b1100 :
1/
1U
1f
b1 #
b1 %
#1940000
04
13
1/
b11000 !
b11000 :
1.
0U
1Z
0f
1k
b10 #
b10 %
#1950000
1-
1<
0.
1n
1=
14
b100100 !
b100100 :
0/
1h
1U
1f
b11 #
b11 %
#1960000
0,
0=
0<
0;
04
03
12
0/
0h
1.
0n
b110000 !
b110000 :
1-
0r
0U
0Z
1^
0f
0k
1o
b100 #
b100 %
#1970000
14
b111100 !
b111100 :
1/
1U
1f
b101 #
b101 %
#1980000
1,
1;
0-
1r
1<
04
13
1/
b1001000 !
b1001000 :
0.
1l
0U
1Z
0f
1k
b110 #
b110 %
#1990000
1.
1m
1n
1=
14
b1010100 !
b1010100 :
0/
1h
1U
1f
b111 #
b111 %
#2000000
0<
0m
0q
0=
0;
0+
04
03
02
11
0/
0h
0.
0l
0n
1-
0r
b1100000 !
b1100000 :
1,
0v
0U
0Z
0^
1b
0f
0k
0o
1s
b1000 #
b1000 %
#2010000
14
b1101100 !
b1101100 :
1/
1U
1f
b1001 #
b1001 %
#2020000
04
13
1/
b1111000 !
b1111000 :
1.
0U
1Z
0f
1k
b1010 #
b1010 %
#2030000
1+
0,
1v
1;
0-
1q
1<
0.
1n
1=
14
b10000100 !
b10000100 :
0/
1h
1U
1f
b1011 #
b1011 %
#2040000
0q
0=
0<
04
03
12
0/
0h
1.
0n
b10010000 !
b10010000 :
0-
1p
0r
0U
0Z
1^
0f
0k
1o
b1100 #
b1100 %
#2050000
14
b10011100 !
b10011100 :
1/
1U
1f
b1101 #
b1101 %
#2060000
1-
1q
1r
1<
04
13
1/
b10101000 !
b10101000 :
0.
1l
0U
1Z
0f
1k
b1110 #
b1110 %
#2070000
1.
1m
1n
1=
14
b10110100 !
b10110100 :
0/
1h
1U
1f
b1111 #
b1111 %
#2080000
0<
0;
0m
0q
0=
0+
04
03
02
01
0/
0h
0.
0l
0n
0-
0p
0r
b0 !
b0 :
0,
0v
0U
0Z
0^
0b
0f
0k
0o
0s
b1101 "
b1101 $
b0 #
b0 %
#2090000
14
1/
b1101 !
b1101 :
1&
1U
1f
b1 #
b1 %
#2100000
19
04
13
1/
1.
b11010 !
b11010 :
0&
1'
0U
1Z
0f
1k
b10 #
b10 %
#2110000
1-
1<
0.
1n
1=
14
0/
1h
b100111 !
b100111 :
1&
1U
1f
b11 #
b11 %
#2120000
0,
0=
0<
0;
09
18
14
03
12
0/
0h
1.
0n
1-
0r
b110100 !
b110100 :
0&
0'
1(
0U
0Z
1^
0f
0k
1o
b100 #
b100 %
#2130000
1,
1;
0-
1r
1<
0.
1m
1=
1h
13
1@
04
1W
0/
b1000001 !
b1000001 :
1&
1U
1f
b101 #
b101 %
#2140000
1r
0p
1<
01
0>
12
0a
0m
0@
0?
0=
19
14
0W
13
0]
1/
0h
0.
1l
0n
b1001110 !
b1001110 :
0&
1'
0U
1Z
0f
1k
b110 #
b110 %
#2150000
0r
1p
0<
11
0l
1>
02
1a
1?
03
1]
1.
0m
0n
1@
0=
04
1W
1/
0h
b1011011 !
b1011011 :
1&
1U
1f
b111 #
b111 %
#2160000
0t
0@
0?
0>
00
0;
0+
09
08
17
04
0W
13
0]
02
0a
11
0e
1/
0.
1-
0p
1,
0v
b1101000 !
b1101000 :
0&
0'
0(
1)
0U
0Z
0^
1b
0f
0k
0o
1s
b1000 #
b1000 %
